SLF4J: Failed to load class "org.slf4j.impl.StaticLoggerBinder".
SLF4J: Defaulting to no-operation (NOP) logger implementation
SLF4J: See http://www.slf4j.org/codes.html#StaticLoggerBinder for further details.
Abnormal Map: {}
Confirm Map: {}
Abnormal flw:966, lid: 1
Abnormal flw:601, lid: 22
Abnormal flw:484, lid: 49
Abnormal flw:345, lid: 78
Abnormal flw:291, lid: 112
Abnormal flw:555, lid: 149
Abnormal flw:534, lid: 186
Abnormal flw:808, lid: 224
Abnormal flw:298, lid: 283
Abnormal flw:888, lid: 338
Abnormal flw:442, lid: 374
Abnormal flw:962, lid: 428
[AbnormalityDetector] RETURN : 374 is abnormal(X).
Abnormal flw:665, lid: 485
Abnormal flw:983, lid: 545
Lid 22 is abnormal(X). (removed by timeout)
Abnormal flw:225, lid: 619
Lid 428 is abnormal(X). (removed by timeout)
Abnormal flw:262, lid: 663
Lid 78 is abnormal(X). (removed by timeout)
Abnormal flw:361, lid: 719
Lid 545 is abnormal(X). (removed by timeout)
Abnormal flw:790, lid: 764
Lid 112 is abnormal(X). (removed by timeout)
Lid 186 is abnormal(X). (removed by timeout)
Lid 49 is abnormal(X). (removed by timeout)
[AbnormalityDetector] RETURN : 764 is abnormal(X).
Abnormal flw:531, lid: 819
Lid 1 is abnormal(X). (removed by timeout)
Lid 224 is abnormal(X). (removed by timeout)
Abnormal flw:280, lid: 884
Lid 149 is abnormal(X). (removed by timeout)
Abnormal flw:943, lid: 941
[AbnormalityDetector] RETURN : 941 is abnormal(X).
Lid 663 is abnormal(X). (removed by timeout)
Abnormal flw:587, lid: 983
Lid 485 is abnormal(X). (removed by timeout)
Lid 283 is abnormal(X). (removed by timeout)
Abnormal flw:539, lid: 1043
Lid 338 is abnormal(X). (removed by timeout)
[AbnormalityDetector] RETURN : 1043 is abnormal(X).
Abnormal flw:755, lid: 1100
Abnormal flw:962, lid: 1156
Abnormal flw:626, lid: 1216
Lid 619 is abnormal(X). (removed by timeout)
Lid 719 is abnormal(X). (removed by timeout)
Lid 819 is abnormal(X). (removed by timeout)
Abnormal flw:199, lid: 1266
Lid 1156 is abnormal(X). (removed by timeout)
Abnormal flw:921, lid: 1319
Lid 1216 is abnormal(X). (removed by timeout)
Abnormal Map: {1319=0, 1100=0, 1266=0, 884=0, 983=0}
Confirm Map: {}
Abnormal flw:600, lid: 1376
Abnormal flw:289, lid: 1426
Lid 884 is abnormal(X). (removed by timeout)
[AbnormalityDetector] RETURN : 1426 is abnormal(X).
Abnormal flw:166, lid: 1486
Lid 983 is abnormal(X). (removed by timeout)
Abnormal flw:934, lid: 1541
Abnormal flw:892, lid: 1598
Lid 1319 is abnormal(X). (removed by timeout)
Abnormal flw:631, lid: 1648
[AbnormalityDetector] RETURN : 1648 is abnormal(X).
Lid 1100 is abnormal(X). (removed by timeout)
Abnormal flw:62, lid: 1709
Abnormal flw:965, lid: 1761
Abnormal flw:928, lid: 1825
Lid 1376 is abnormal(X). (removed by timeout)
Abnormal flw:275, lid: 1876
Lid 1541 is abnormal(X). (removed by timeout)
Lid 1761 is abnormal(X). (removed by timeout)
Abnormal flw:281, lid: 1929
Abnormal flw:714, lid: 1992
Abnormal flw:859, lid: 2040
Lid 1266 is abnormal(X). (removed by timeout)
Lid 1929 is abnormal(X). (removed by timeout)
Abnormal flw:664, lid: 2091
Abnormal flw:867, lid: 2151
Lid 1486 is abnormal(X). (removed by timeout)
Abnormal flw:839, lid: 2208
[AbnormalityDetector] RETURN : 2208 is abnormal(X).
Abnormal flw:935, lid: 2263
Lid 2040 is abnormal(X). (removed by timeout)
Abnormal flw:790, lid: 2323
Lid 1876 is abnormal(X). (removed by timeout)
[AbnormalityDetector] RETURN : 2323 is abnormal(X).
Abnormal flw:947, lid: 2371
[AbnormalityDetector] RETURN : 2371 is abnormal(X).
Abnormal flw:706, lid: 2426
Lid 1709 is abnormal(X). (removed by timeout)
Abnormal flw:489, lid: 2487
Abnormal flw:980, lid: 2540
Lid 1598 is abnormal(X). (removed by timeout)
Lid 1825 is abnormal(X). (removed by timeout)
Abnormal flw:251, lid: 2593
[AbnormalityDetector] RETURN : 2593 is abnormal(X).
Abnormal flw:219, lid: 2648
Lid 1992 is abnormal(X). (removed by timeout)
Lid 2091 is abnormal(X). (removed by timeout)
Abnormal flw:406, lid: 2703
Lid 2263 is abnormal(X). (removed by timeout)
Abnormal flw:625, lid: 2761
Abnormal flw:166, lid: 2810
Abnormal flw:364, lid: 2868
Abnormal flw:959, lid: 2927
Abnormal Map: {2151=0, 2761=0, 2540=0, 2703=0, 2927=0, 2868=0, 2487=0, 2648=0, 2426=0, 2810=0}
Confirm Map: {}
Lid 2151 is abnormal(X). (removed by timeout)
Abnormal flw:907, lid: 2986
Lid 2648 is abnormal(X). (removed by timeout)
Lid 2426 is abnormal(X). (removed by timeout)
Lid 2487 is abnormal(X). (removed by timeout)
Lid 2703 is abnormal(X). (removed by timeout)
Abnormal flw:374, lid: 3036
[AbnormalityDetector] RETURN : 3036 is abnormal(X).
Lid 2540 is abnormal(X). (removed by timeout)
Lid 2761 is abnormal(X). (removed by timeout)
Abnormal flw:481, lid: 3094
[AbnormalityDetector] RETURN : 3094 is abnormal(X).
Abnormal flw:585, lid: 3137
Abnormal flw:6, lid: 3195
Abnormal flw:734, lid: 3257
Abnormal flw:102, lid: 3321
Abnormal flw:859, lid: 3367
Abnormal flw:30, lid: 3426
Lid 2868 is abnormal(X). (removed by timeout)
[AbnormalityDetector] RETURN : 3426 is abnormal(X).
Lid 2986 is abnormal(X). (removed by timeout)
Abnormal flw:810, lid: 3481
Lid 3137 is abnormal(X). (removed by timeout)
Lid 2810 is abnormal(X). (removed by timeout)
Abnormal flw:488, lid: 3534
Abnormal flw:501, lid: 3594
Lid 3367 is abnormal(X). (removed by timeout)
Abnormal flw:784, lid: 3644
Lid 3195 is abnormal(X). (removed by timeout)
Lid 3534 is abnormal(X). (removed by timeout)
Abnormal flw:202, lid: 3696
Abnormal flw:76, lid: 3764
Abnormal flw:785, lid: 3808
Lid 2927 is abnormal(X). (removed by timeout)
Abnormal flw:82, lid: 3875
Lid 3696 is abnormal(X). (removed by timeout)
Abnormal flw:717, lid: 3918
Lid 3321 is abnormal(X). (removed by timeout)
Lid 3481 is abnormal(X). (removed by timeout)
Lid 3257 is abnormal(X). (removed by timeout)
Abnormal flw:3, lid: 3975
Abnormal flw:209, lid: 4030
Lid 3764 is abnormal(X). (removed by timeout)
Abnormal flw:315, lid: 4079
Abnormal flw:999, lid: 4144
Abnormal flw:127, lid: 4203
Lid 3594 is abnormal(X). (removed by timeout)
Abnormal flw:365, lid: 4253
Lid 3808 is abnormal(X). (removed by timeout)
Lid 3644 is abnormal(X). (removed by timeout)
Lid 3875 is abnormal(X). (removed by timeout)
Abnormal flw:29, lid: 4310
Lid 4030 is abnormal(X). (removed by timeout)
Lid 4079 is abnormal(X). (removed by timeout)
Abnormal flw:641, lid: 4361
Abnormal flw:551, lid: 4410
Abnormal flw:934, lid: 4477
Lid 3918 is abnormal(X). (removed by timeout)
Abnormal flw:271, lid: 4542
Abnormal Map: {3975=0, 4361=0, 4203=0, 4144=0, 4310=0, 4410=0, 4253=0, 4477=0}
Confirm Map: {}
Lid 4203 is abnormal(X). (removed by timeout)
Lid 4361 is abnormal(X). (removed by timeout)
Abnormal flw:282, lid: 4584
Lid 4144 is abnormal(X). (removed by timeout)
Lid 3975 is abnormal(X). (removed by timeout)
Lid 4310 is abnormal(X). (removed by timeout)
Abnormal flw:358, lid: 4633
Abnormal flw:172, lid: 4683
Abnormal flw:519, lid: 4750
Abnormal flw:559, lid: 4808
Lid 4477 is abnormal(X). (removed by timeout)
Lid 4253 is abnormal(X). (removed by timeout)
Lid 4410 is abnormal(X). (removed by timeout)
Abnormal flw:938, lid: 4865
Lid 4683 is abnormal(X). (removed by timeout)
Abnormal flw:537, lid: 4916
Abnormal flw:749, lid: 4969
Lid 4542 is abnormal(X). (removed by timeout)
Abnormal flw:972, lid: 5023
Lid 4916 is abnormal(X). (removed by timeout)
Abnormal flw:729, lid: 5084
Lid 4584 is abnormal(X). (removed by timeout)
Abnormal flw:696, lid: 5144
Abnormal flw:178, lid: 5202
Lid 4750 is abnormal(X). (removed by timeout)
Lid 4808 is abnormal(X). (removed by timeout)
Lid 4865 is abnormal(X). (removed by timeout)
Abnormal flw:775, lid: 5247
Lid 4633 is abnormal(X). (removed by timeout)
Abnormal flw:93, lid: 5291
Lid 5084 is abnormal(X). (removed by timeout)
Abnormal flw:93, lid: 5349
Abnormal flw:679, lid: 5415
Lid 4969 is abnormal(X). (removed by timeout)
Abnormal flw:837, lid: 5471
Lid 5291 is abnormal(X). (removed by timeout)
Abnormal flw:600, lid: 5533
Lid 5349 is abnormal(X). (removed by timeout)
Abnormal flw:579, lid: 5577
Abnormal flw:962, lid: 5635
Abnormal flw:227, lid: 5687
Lid 5144 is abnormal(X). (removed by timeout)
Lid 5202 is abnormal(X). (removed by timeout)
Abnormal flw:867, lid: 5737
Lid 5635 is abnormal(X). (removed by timeout)
Abnormal flw:940, lid: 5795
Lid 5415 is abnormal(X). (removed by timeout)
Lid 5023 is abnormal(X). (removed by timeout)
Lid 5471 is abnormal(X). (removed by timeout)
Abnormal flw:820, lid: 5863
Lid 5247 is abnormal(X). (removed by timeout)
Lid 5687 is abnormal(X). (removed by timeout)
Abnormal flw:419, lid: 5907
[AbnormalityDetector] RETURN : 5907 is abnormal(X).
Abnormal flw:720, lid: 5969
Lid 5533 is abnormal(X). (removed by timeout)
[AbnormalityDetector] RETURN : 5969 is abnormal(X).
Abnormal flw:600, lid: 6025
Abnormal flw:942, lid: 6077
Abnormal Map: {5795=0, 5863=0, 5577=0, 5737=0, 6025=0, 6077=0}
Confirm Map: {}
Lid 5577 is abnormal(X). (removed by timeout)
Abnormal flw:169, lid: 6131
Abnormal flw:239, lid: 6187
Abnormal flw:349, lid: 6232
Abnormal flw:457, lid: 6298
Lid 5795 is abnormal(X). (removed by timeout)
Abnormal flw:609, lid: 6352
Abnormal flw:981, lid: 6407
Abnormal flw:702, lid: 6465
Lid 6025 is abnormal(X). (removed by timeout)
Lid 5863 is abnormal(X). (removed by timeout)
Abnormal flw:84, lid: 6521
Lid 5737 is abnormal(X). (removed by timeout)
Abnormal flw:800, lid: 6575
Lid 6077 is abnormal(X). (removed by timeout)
Abnormal flw:25, lid: 6627
Lid 6407 is abnormal(X). (removed by timeout)
Abnormal flw:956, lid: 6681
Abnormal flw:216, lid: 6730
Lid 6232 is abnormal(X). (removed by timeout)
Abnormal flw:979, lid: 6794
Abnormal flw:641, lid: 6854
Lid 6298 is abnormal(X). (removed by timeout)
Lid 6521 is abnormal(X). (removed by timeout)
Abnormal flw:158, lid: 6914
Lid 6465 is abnormal(X). (removed by timeout)
Lid 6131 is abnormal(X). (removed by timeout)
Abnormal flw:240, lid: 6967
Lid 6681 is abnormal(X). (removed by timeout)
Abnormal flw:71, lid: 7020
Lid 6352 is abnormal(X). (removed by timeout)
Lid 6187 is abnormal(X). (removed by timeout)
Lid 6854 is abnormal(X). (removed by timeout)
Abnormal flw:929, lid: 7061
Lid 6627 is abnormal(X). (removed by timeout)
Abnormal flw:430, lid: 7121
Lid 7020 is abnormal(X). (removed by timeout)
Abnormal flw:956, lid: 7183
Abnormal flw:926, lid: 7248
Lid 6575 is abnormal(X). (removed by timeout)
Lid 7121 is abnormal(X). (removed by timeout)
Abnormal flw:891, lid: 7296
[AbnormalityDetector] RETURN : 7296 is abnormal(X).
Abnormal flw:154, lid: 7351
Lid 6967 is abnormal(X). (removed by timeout)
Lid 6914 is abnormal(X). (removed by timeout)
Abnormal flw:133, lid: 7402
Lid 7061 is abnormal(X). (removed by timeout)
Lid 6730 is abnormal(X). (removed by timeout)
Abnormal flw:74, lid: 7455
Lid 7183 is abnormal(X). (removed by timeout)
Lid 6794 is abnormal(X). (removed by timeout)
Abnormal flw:314, lid: 7511
Abnormal flw:156, lid: 7571
Abnormal flw:187, lid: 7623
Lid 7248 is abnormal(X). (removed by timeout)
Abnormal flw:978, lid: 7680
Abnormal Map: {7623=0, 7402=0, 7571=0, 7351=0, 7511=0, 7455=0}
Confirm Map: {}
Lid 7571 is abnormal(X). (removed by timeout)
Abnormal flw:80, lid: 7732
Abnormal flw:22, lid: 7798
Lid 7351 is abnormal(X). (removed by timeout)
Lid 7455 is abnormal(X). (removed by timeout)
Abnormal flw:937, lid: 7848
Abnormal flw:903, lid: 7900
Abnormal flw:664, lid: 7958
Lid 7402 is abnormal(X). (removed by timeout)
Abnormal flw:221, lid: 8005
Lid 7900 is abnormal(X). (removed by timeout)
Abnormal flw:666, lid: 8059
Lid 7732 is abnormal(X). (removed by timeout)
Abnormal flw:689, lid: 8121
Abnormal flw:774, lid: 8181
Lid 7511 is abnormal(X). (removed by timeout)
[AbnormalityDetector] RETURN : 8181 is abnormal(X).
Lid 7623 is abnormal(X). (removed by timeout)
Abnormal flw:113, lid: 8234
Lid 7848 is abnormal(X). (removed by timeout)
Abnormal flw:773, lid: 8285
Lid 7680 is abnormal(X). (removed by timeout)
Abnormal flw:91, lid: 8338
Lid 7798 is abnormal(X). (removed by timeout)
Lid 8059 is abnormal(X). (removed by timeout)
Lid 8234 is abnormal(X). (removed by timeout)
Abnormal flw:146, lid: 8400
Abnormal flw:910, lid: 8456
[AbnormalityDetector] RETURN : 8456 is abnormal(X).
Abnormal flw:268, lid: 8502
Lid 7958 is abnormal(X). (removed by timeout)
Lid 8121 is abnormal(X). (removed by timeout)
Abnormal flw:511, lid: 8559
Lid 8005 is abnormal(X). (removed by timeout)
Abnormal flw:299, lid: 8622
Abnormal flw:970, lid: 8676
Lid 8559 is abnormal(X). (removed by timeout)
Abnormal flw:843, lid: 8734
Lid 8338 is abnormal(X). (removed by timeout)
Abnormal flw:383, lid: 8787
Lid 8676 is abnormal(X). (removed by timeout)
Abnormal flw:256, lid: 8840
Lid 8285 is abnormal(X). (removed by timeout)
Abnormal flw:139, lid: 8893
Abnormal flw:571, lid: 8951
Lid 8400 is abnormal(X). (removed by timeout)
Abnormal flw:1, lid: 9007
Abnormal flw:50, lid: 9062
Lid 8622 is abnormal(X). (removed by timeout)
Lid 8840 is abnormal(X). (removed by timeout)
Abnormal flw:428, lid: 9119
Lid 8502 is abnormal(X). (removed by timeout)
Abnormal flw:846, lid: 9171
Abnormal flw:534, lid: 9223
Lid 8734 is abnormal(X). (removed by timeout)
Abnormal Map: {9062=0, 9223=0, 9007=0, 8787=0, 9171=0, 8951=0, 8893=0, 9119=0}
Confirm Map: {}
Abnormal flw:365, lid: 9278
Lid 8787 is abnormal(X). (removed by timeout)
Abnormal flw:404, lid: 9341
Lid 8893 is abnormal(X). (removed by timeout)
Lid 8951 is abnormal(X). (removed by timeout)
[AbnormalityDetector] RETURN : 9341 is abnormal(X).
Lid 9007 is abnormal(X). (removed by timeout)
Abnormal flw:181, lid: 9396
[AbnormalityDetector] RETURN : 9396 is abnormal(X).
Abnormal flw:384, lid: 9446
Lid 9119 is abnormal(X). (removed by timeout)
Abnormal flw:605, lid: 9509
Abnormal flw:820, lid: 9555
Abnormal flw:364, lid: 9609
Abnormal flw:630, lid: 9673
Lid 9223 is abnormal(X). (removed by timeout)
[AbnormalityDetector] RETURN : 9673 is abnormal(X).
Abnormal flw:701, lid: 9723
Lid 9062 is abnormal(X). (removed by timeout)
Abnormal flw:451, lid: 9774
Abnormal flw:439, lid: 9836
Lid 9278 is abnormal(X). (removed by timeout)
Abnormal flw:173, lid: 9893
Abnormal flw:323, lid: 9955
Lid 9446 is abnormal(X). (removed by timeout)
Lid 9171 is abnormal(X). (removed by timeout)
Abnormal flw:392, lid: 9998
Abnormal flw:871, lid: 10056
Abnormal flw:572, lid: 10104
Lid 9774 is abnormal(X). (removed by timeout)
Abnormal flw:248, lid: 10168
Lid 9609 is abnormal(X). (removed by timeout)
Lid 9555 is abnormal(X). (removed by timeout)
Lid 9509 is abnormal(X). (removed by timeout)
Abnormal flw:818, lid: 10220
[AbnormalityDetector] RETURN : 10220 is abnormal(X).
Abnormal flw:557, lid: 10282
Lid 9998 is abnormal(X). (removed by timeout)
Abnormal flw:308, lid: 10334
Lid 10056 is abnormal(X). (removed by timeout)
Lid 9893 is abnormal(X). (removed by timeout)
Abnormal flw:859, lid: 10386
Lid 9723 is abnormal(X). (removed by timeout)
Lid 10282 is abnormal(X). (removed by timeout)
Abnormal flw:223, lid: 10437
Lid 9836 is abnormal(X). (removed by timeout)
Abnormal flw:551, lid: 10501
Abnormal flw:746, lid: 10561
Lid 9955 is abnormal(X). (removed by timeout)
Lid 10104 is abnormal(X). (removed by timeout)
Lid 10437 is abnormal(X). (removed by timeout)
Abnormal flw:637, lid: 10615
Lid 10386 is abnormal(X). (removed by timeout)
Abnormal flw:343, lid: 10665
Abnormal flw:696, lid: 10713
Abnormal flw:19, lid: 10765
Lid 10168 is abnormal(X). (removed by timeout)
Lid 10665 is abnormal(X). (removed by timeout)
Abnormal flw:103, lid: 10839
Abnormal Map: {10561=0, 10501=0, 10765=0, 10615=0, 10713=0, 10334=0}
Confirm Map: {}
Abnormal flw:45, lid: 10887
Lid 10501 is abnormal(X). (removed by timeout)
Abnormal flw:625, lid: 10944
Abnormal flw:691, lid: 10994
Lid 10615 is abnormal(X). (removed by timeout)
Abnormal flw:951, lid: 11047
Lid 10561 is abnormal(X). (removed by timeout)
Lid 10334 is abnormal(X). (removed by timeout)
Abnormal flw:474, lid: 11098
[AbnormalityDetector] RETURN : 11098 is abnormal(X).
Abnormal flw:429, lid: 11161
Abnormal flw:649, lid: 11217
Lid 10839 is abnormal(X). (removed by timeout)
Lid 10944 is abnormal(X). (removed by timeout)
Abnormal flw:674, lid: 11282
Lid 10713 is abnormal(X). (removed by timeout)
Abnormal flw:869, lid: 11322
Lid 10994 is abnormal(X). (removed by timeout)
[AbnormalityDetector] RETURN : 11322 is abnormal(X).
Lid 10765 is abnormal(X). (removed by timeout)
Abnormal flw:371, lid: 11377
Lid 10887 is abnormal(X). (removed by timeout)
Abnormal flw:363, lid: 11437
Lid 11161 is abnormal(X). (removed by timeout)
Abnormal flw:19, lid: 11496
Lid 11047 is abnormal(X). (removed by timeout)
Abnormal flw:451, lid: 11548
Abnormal flw:76, lid: 11606
Abnormal flw:201, lid: 11646
Lid 11282 is abnormal(X). (removed by timeout)
Abnormal flw:314, lid: 11713
Lid 11217 is abnormal(X). (removed by timeout)
Abnormal flw:615, lid: 11776
Abnormal flw:421, lid: 11827
Lid 11377 is abnormal(X). (removed by timeout)
Lid 11437 is abnormal(X). (removed by timeout)
Abnormal flw:792, lid: 11886
Lid 11548 is abnormal(X). (removed by timeout)
Lid 11606 is abnormal(X). (removed by timeout)
Abnormal flw:943, lid: 11931
[AbnormalityDetector] RETURN : 11931 is abnormal(X).
Abnormal flw:702, lid: 11989
Abnormal flw:390, lid: 12040
Lid 11496 is abnormal(X). (removed by timeout)
Abnormal flw:358, lid: 12105
Lid 11646 is abnormal(X). (removed by timeout)
Abnormal flw:214, lid: 12160
Abnormal flw:281, lid: 12214
Abnormal flw:136, lid: 12267
Abnormal flw:813, lid: 12327
Lid 11776 is abnormal(X). (removed by timeout)
Lid 12214 is abnormal(X). (removed by timeout)
Abnormal flw:317, lid: 12386
Lid 11713 is abnormal(X). (removed by timeout)
Lid 11827 is abnormal(X). (removed by timeout)
Lid 11886 is abnormal(X). (removed by timeout)
Abnormal Map: {12160=0, 12386=0, 12327=0, 12040=0, 12105=0, 12267=0, 11989=0}
Confirm Map: {}
Lid 12267 is abnormal(X). (removed by timeout)
Abnormal flw:128, lid: 12433
Lid 11989 is abnormal(X). (removed by timeout)
Abnormal flw:974, lid: 12485
Lid 12040 is abnormal(X). (removed by timeout)
Lid 12327 is abnormal(X). (removed by timeout)
Abnormal flw:759, lid: 12541
[AbnormalityDetector] RETURN : 12541 is abnormal(X).
Abnormal flw:999, lid: 12597
Abnormal flw:680, lid: 12651
Lid 12433 is abnormal(X). (removed by timeout)
Abnormal flw:130, lid: 12711
Lid 12105 is abnormal(X). (removed by timeout)
Abnormal flw:516, lid: 12771
Lid 12160 is abnormal(X). (removed by timeout)
Abnormal flw:485, lid: 12824
Abnormal flw:985, lid: 12873
Lid 12386 is abnormal(X). (removed by timeout)
[AbnormalityDetector] RETURN : 12873 is abnormal(X).
Abnormal flw:105, lid: 12926
Abnormal flw:786, lid: 12982
Abnormal flw:763, lid: 13046
Lid 12597 is abnormal(X). (removed by timeout)
Abnormal flw:566, lid: 13102
Abnormal flw:48, lid: 13151
Lid 12824 is abnormal(X). (removed by timeout)
Abnormal flw:289, lid: 13205
[AbnormalityDetector] RETURN : 13205 is abnormal(X).
Lid 12485 is abnormal(X). (removed by timeout)
Abnormal flw:158, lid: 13259
Lid 12711 is abnormal(X). (removed by timeout)
Abnormal flw:817, lid: 13317
Abnormal flw:13, lid: 13378
[AbnormalityDetector] RETURN : 13378 is abnormal(X).
Lid 12926 is abnormal(X). (removed by timeout)
Abnormal flw:809, lid: 13426
Lid 12771 is abnormal(X). (removed by timeout)
[AbnormalityDetector] RETURN : 13426 is abnormal(X).
Lid 12651 is abnormal(X). (removed by timeout)
Abnormal flw:381, lid: 13486
Lid 12982 is abnormal(X). (removed by timeout)
Abnormal flw:394, lid: 13535
Lid 13102 is abnormal(X). (removed by timeout)
Lid 13046 is abnormal(X). (removed by timeout)
Abnormal flw:115, lid: 13596
Abnormal flw:235, lid: 13645
Lid 13535 is abnormal(X). (removed by timeout)
Abnormal flw:405, lid: 13704
Lid 13259 is abnormal(X). (removed by timeout)
Lid 13317 is abnormal(X). (removed by timeout)
Abnormal flw:436, lid: 13754
Lid 13645 is abnormal(X). (removed by timeout)
Abnormal flw:149, lid: 13819
Abnormal flw:250, lid: 13873
Lid 13151 is abnormal(X). (removed by timeout)
Abnormal flw:294, lid: 13927
Lid 13819 is abnormal(X). (removed by timeout)
Abnormal flw:397, lid: 13981
Abnormal Map: {13927=0, 13704=0, 13486=0, 13873=0, 13754=0, 13596=0}
Confirm Map: {}
Abnormal flw:643, lid: 14038
Abnormal flw:124, lid: 14093
Lid 13596 is abnormal(X). (removed by timeout)
Lid 13981 is abnormal(X). (removed by timeout)
Lid 13486 is abnormal(X). (removed by timeout)
Abnormal flw:643, lid: 14149
Lid 13873 is abnormal(X). (removed by timeout)
Abnormal flw:864, lid: 14202
[AbnormalityDetector] RETURN : 14202 is abnormal(X).
Abnormal flw:178, lid: 14250
Abnormal flw:928, lid: 14308
Lid 13754 is abnormal(X). (removed by timeout)
Abnormal flw:79, lid: 14366
Abnormal flw:897, lid: 14417
Lid 13704 is abnormal(X). (removed by timeout)
Abnormal flw:510, lid: 14475
Abnormal flw:462, lid: 14541
Lid 14093 is abnormal(X). (removed by timeout)
Lid 13927 is abnormal(X). (removed by timeout)
Abnormal flw:594, lid: 14588
Lid 14038 is abnormal(X). (removed by timeout)
Abnormal flw:108, lid: 14647
Lid 14541 is abnormal(X). (removed by timeout)
Abnormal flw:811, lid: 14699
Lid 14149 is abnormal(X). (removed by timeout)
Abnormal flw:541, lid: 14747
[AbnormalityDetector] RETURN : 14747 is abnormal(X).
Lid 14250 is abnormal(X). (removed by timeout)
Abnormal flw:932, lid: 14808
Abnormal flw:618, lid: 14866
[AbnormalityDetector] RETURN : 14866 is abnormal(X).
Abnormal flw:761, lid: 14928
Abnormal flw:981, lid: 14985
Lid 14588 is abnormal(X). (removed by timeout)
Abnormal flw:288, lid: 15029
Lid 14417 is abnormal(X). (removed by timeout)
Lid 14308 is abnormal(X). (removed by timeout)
Lid 14366 is abnormal(X). (removed by timeout)
Abnormal flw:537, lid: 15083
Lid 14475 is abnormal(X). (removed by timeout)
Abnormal flw:806, lid: 15145
Lid 14647 is abnormal(X). (removed by timeout)
Lid 15029 is abnormal(X). (removed by timeout)
Abnormal flw:770, lid: 15185
Lid 14699 is abnormal(X). (removed by timeout)
Lid 14985 is abnormal(X). (removed by timeout)
Lid 15083 is abnormal(X). (removed by timeout)
Abnormal flw:545, lid: 15249
Lid 14808 is abnormal(X). (removed by timeout)
Abnormal flw:678, lid: 15311
[AbnormalityDetector] RETURN : 15311 is abnormal(X).
Abnormal flw:565, lid: 15366
[AbnormalityDetector] RETURN : 15366 is abnormal(X).
Abnormal flw:737, lid: 15416
Abnormal flw:747, lid: 15472
Abnormal flw:882, lid: 15529
Abnormal Map: {15145=0, 15529=0, 14928=0, 15472=0, 15185=0, 15249=0, 15416=0}
Confirm Map: {}
Abnormal flw:340, lid: 15582
Lid 15249 is abnormal(X). (removed by timeout)
Lid 14928 is abnormal(X). (removed by timeout)
[AbnormalityDetector] RETURN : 15582 is abnormal(X).
Abnormal flw:514, lid: 15636

[Memory Test Result] 2017-38-17 03:38:12
	Total Average : 46,082,720 ( 43.95 MB)
Average of transport: 0.24106629163203988
Total of transport: 3771
Last lid: 15643
Number of instance: 0
Average of abnormal required time: 16545
Average of normal required time: 9752
number of wrong answer: 0
Pattern Map(first): [{"flw":168,"app":202,"lid":"14907","e_date":"2017\/04\/17 15:37:45:595","s_date":"2017\/04\/17 15:37:44:594"}, {"flw":680,"app":289,"lid":"14994","e_date":"2017\/04\/17 15:37:48:944","s_date":"2017\/04\/17 15:37:47:944"}, {"flw":42,"app":165,"lid":"15038","e_date":"2017\/04\/17 15:37:50:827","s_date":"2017\/04\/17 15:37:49:826"}, {"flw":816,"app":282,"lid":"15050","e_date":"2017\/04\/17 15:37:51:372","s_date":"2017\/04\/17 15:37:50:372"}, {"flw":466,"app":219,"lid":"15060","e_date":"2017\/04\/17 15:37:51:979","s_date":"2017\/04\/17 15:37:50:979"}, {"flw":440,"app":428,"lid":"15068","e_date":"2017\/04\/17 15:37:52:266","s_date":"2017\/04\/17 15:37:51:265"}, {"flw":446,"app":339,"lid":"15079","e_date":"2017\/04\/17 15:37:52:515","s_date":"2017\/04\/17 15:37:51:515"}, {"flw":294,"app":281,"lid":"15082","e_date":"2017\/04\/17 15:37:52:584","s_date":"2017\/04\/17 15:37:51:584"}, {"flw":97,"app":249,"lid":"15089","e_date":"2017\/04\/17 15:37:52:866","s_date":"2017\/04\/17 15:37:51:866"}, {"flw":928,"app":280,"lid":"15110","e_date":"2017\/04\/17 15:37:53:602","s_date":"2017\/04\/17 15:37:52:602"}, {"flw":959,"app":407,"lid":"15116","e_date":"2017\/04\/17 15:37:53:871","s_date":"2017\/04\/17 15:37:52:871"}, {"flw":960,"app":365,"lid":"15118","e_date":"2017\/04\/17 15:37:53:994","s_date":"2017\/04\/17 15:37:52:993"}, {"flw":59,"app":251,"lid":"15126","e_date":"2017\/04\/17 15:37:54:247","s_date":"2017\/04\/17 15:37:53:247"}, {"flw":491,"app":1,"lid":"15127","e_date":"2017\/04\/17 15:37:54:258","s_date":"2017\/04\/17 15:37:53:258"}, {"flw":117,"app":82,"lid":"15137","e_date":"2017\/04\/17 15:37:54:480","s_date":"2017\/04\/17 15:37:53:480"}, {"flw":330,"app":443,"lid":"15144","e_date":"2017\/04\/17 15:37:54:614","s_date":"2017\/04\/17 15:37:53:614"}, {"flw":806,"app":-1,"lid":"15145","e_date":"2017\/04\/17 15:37:54:697","s_date":"2017\/04\/17 15:37:53:697"}, {"flw":877,"app":34,"lid":"15146","e_date":"2017\/04\/17 15:37:54:850","s_date":"2017\/04\/17 15:37:53:850"}, {"flw":730,"app":166,"lid":"15169","e_date":"2017\/04\/17 15:37:55:676","s_date":"2017\/04\/17 15:37:54:675"}, {"flw":730,"app":166,"lid":"15170","e_date":"2017\/04\/17 15:37:55:691","s_date":"2017\/04\/17 15:37:54:691"}, {"flw":96,"app":3,"lid":"15171","e_date":"2017\/04\/17 15:37:55:817","s_date":"2017\/04\/17 15:37:54:817"}, {"flw":358,"app":29,"lid":"15174","e_date":"2017\/04\/17 15:37:56:021","s_date":"2017\/04\/17 15:37:55:021"}, {"flw":574,"app":202,"lid":"15184","e_date":"2017\/04\/17 15:37:56:696","s_date":"2017\/04\/17 15:37:55:696"}, {"flw":888,"app":392,"lid":"15183","e_date":"2017\/04\/17 15:37:56:696","s_date":"2017\/04\/17 15:37:55:696"}, {"flw":770,"app":-1,"lid":"15185","e_date":"2017\/04\/17 15:37:56:800","s_date":"2017\/04\/17 15:37:55:798"}, {"flw":300,"app":125,"lid":"15195","e_date":"2017\/04\/17 15:37:57:177","s_date":"2017\/04\/17 15:37:56:177"}, {"flw":483,"app":315,"lid":"15198","e_date":"2017\/04\/17 15:37:57:265","s_date":"2017\/04\/17 15:37:56:265"}, {"flw":241,"app":39,"lid":"15199","e_date":"2017\/04\/17 15:37:57:292","s_date":"2017\/04\/17 15:37:56:292"}, {"flw":152,"app":361,"lid":"15200","e_date":"2017\/04\/17 15:37:57:295","s_date":"2017\/04\/17 15:37:56:295"}, {"flw":358,"app":93,"lid":"15205","e_date":"2017\/04\/17 15:37:57:467","s_date":"2017\/04\/17 15:37:56:467"}, {"flw":72,"app":484,"lid":"15206","e_date":"2017\/04\/17 15:37:57:560","s_date":"2017\/04\/17 15:37:56:560"}, {"flw":367,"app":481,"lid":"15210","e_date":"2017\/04\/17 15:37:57:708","s_date":"2017\/04\/17 15:37:56:708"}, {"flw":967,"app":206,"lid":"15214","e_date":"2017\/04\/17 15:37:57:775","s_date":"2017\/04\/17 15:37:56:775"}, {"flw":253,"app":127,"lid":"15215","e_date":"2017\/04\/17 15:37:57:776","s_date":"2017\/04\/17 15:37:56:776"}, {"flw":499,"app":298,"lid":"15223","e_date":"2017\/04\/17 15:37:58:034","s_date":"2017\/04\/17 15:37:57:034"}, {"flw":323,"app":30,"lid":"15224","e_date":"2017\/04\/17 15:37:58:067","s_date":"2017\/04\/17 15:37:57:067"}, {"flw":305,"app":251,"lid":"15231","e_date":"2017\/04\/17 15:37:58:348","s_date":"2017\/04\/17 15:37:57:348"}, {"flw":452,"app":442,"lid":"15232","e_date":"2017\/04\/17 15:37:58:441","s_date":"2017\/04\/17 15:37:57:441"}, {"flw":377,"app":472,"lid":"15237","e_date":"2017\/04\/17 15:37:58:649","s_date":"2017\/04\/17 15:37:57:649"}, {"flw":358,"app":364,"lid":"15244","e_date":"2017\/04\/17 15:37:58:799","s_date":"2017\/04\/17 15:37:57:799"}, {"flw":832,"app":483,"lid":"15245","e_date":"2017\/04\/17 15:37:58:850","s_date":"2017\/04\/17 15:37:57:849"}, {"flw":168,"app":202,"lid":"15246","e_date":"2017\/04\/17 15:37:58:880","s_date":"2017\/04\/17 15:37:57:880"}, {"flw":99,"app":359,"lid":"15247","e_date":"2017\/04\/17 15:37:58:882","s_date":"2017\/04\/17 15:37:57:882"}, {"flw":99,"app":359,"lid":"15248","e_date":"2017\/04\/17 15:37:58:892","s_date":"2017\/04\/17 15:37:57:892"}, {"flw":85,"app":434,"lid":"15252","e_date":"2017\/04\/17 15:37:59:043","s_date":"2017\/04\/17 15:37:58:043"}, {"flw":85,"app":434,"lid":"15253","e_date":"2017\/04\/17 15:37:59:084","s_date":"2017\/04\/17 15:37:58:084"}, {"flw":717,"app":308,"lid":"15258","e_date":"2017\/04\/17 15:37:59:183","s_date":"2017\/04\/17 15:37:58:183"}, {"flw":696,"app":284,"lid":"15261","e_date":"2017\/04\/17 15:37:59:429","s_date":"2017\/04\/17 15:37:58:428"}, {"flw":773,"app":199,"lid":"15265","e_date":"2017\/04\/17 15:37:59:521","s_date":"2017\/04\/17 15:37:58:521"}, {"flw":437,"app":262,"lid":"15266","e_date":"2017\/04\/17 15:37:59:553","s_date":"2017\/04\/17 15:37:58:553"}, {"flw":17,"app":489,"lid":"15267","e_date":"2017\/04\/17 15:37:59:576","s_date":"2017\/04\/17 15:37:58:576"}, {"flw":493,"app":281,"lid":"15268","e_date":"2017\/04\/17 15:37:59:686","s_date":"2017\/04\/17 15:37:58:686"}, {"flw":590,"app":141,"lid":"15270","e_date":"2017\/04\/17 15:37:59:701","s_date":"2017\/04\/17 15:37:58:701"}, {"flw":205,"app":51,"lid":"15275","e_date":"2017\/04\/17 15:37:59:914","s_date":"2017\/04\/17 15:37:58:914"}, {"flw":803,"app":462,"lid":"15277","e_date":"2017\/04\/17 15:37:59:941","s_date":"2017\/04\/17 15:37:58:941"}, {"flw":803,"app":462,"lid":"15278","e_date":"2017\/04\/17 15:37:59:959","s_date":"2017\/04\/17 15:37:58:959"}, {"flw":476,"app":289,"lid":"15281","e_date":"2017\/04\/17 15:38:00:046","s_date":"2017\/04\/17 15:37:59:045"}, {"flw":41,"app":102,"lid":"15289","e_date":"2017\/04\/17 15:38:00:133","s_date":"2017\/04\/17 15:37:59:133"}, {"flw":307,"app":459,"lid":"15290","e_date":"2017\/04\/17 15:38:00:142","s_date":"2017\/04\/17 15:37:59:142"}, {"flw":75,"app":214,"lid":"15292","e_date":"2017\/04\/17 15:38:00:218","s_date":"2017\/04\/17 15:37:59:213"}, {"flw":316,"app":290,"lid":"15293","e_date":"2017\/04\/17 15:38:00:251","s_date":"2017\/04\/17 15:37:59:251"}, {"flw":316,"app":290,"lid":"15294","e_date":"2017\/04\/17 15:38:00:273","s_date":"2017\/04\/17 15:37:59:273"}, {"flw":542,"app":374,"lid":"15295","e_date":"2017\/04\/17 15:38:00:312","s_date":"2017\/04\/17 15:37:59:312"}, {"flw":795,"app":172,"lid":"15302","e_date":"2017\/04\/17 15:38:00:554","s_date":"2017\/04\/17 15:37:59:554"}, {"flw":213,"app":82,"lid":"15303","e_date":"2017\/04\/17 15:38:00:581","s_date":"2017\/04\/17 15:37:59:581"}, {"flw":676,"app":484,"lid":"15305","e_date":"2017\/04\/17 15:38:00:663","s_date":"2017\/04\/17 15:37:59:662"}, {"flw":996,"app":165,"lid":"15309","e_date":"2017\/04\/17 15:38:00:930","s_date":"2017\/04\/17 15:37:59:930"}, {"flw":973,"app":358,"lid":"15312","e_date":"2017\/04\/17 15:38:01:116","s_date":"2017\/04\/17 15:38:00:116"}, {"flw":213,"app":388,"lid":"15315","e_date":"2017\/04\/17 15:38:01:183","s_date":"2017\/04\/17 15:38:00:183"}, {"flw":680,"app":289,"lid":"15316","e_date":"2017\/04\/17 15:38:01:192","s_date":"2017\/04\/17 15:38:00:192"}, {"flw":56,"app":480,"lid":"15321","e_date":"2017\/04\/17 15:38:01:354","s_date":"2017\/04\/17 15:38:00:354"}, {"flw":580,"app":282,"lid":"15329","e_date":"2017\/04\/17 15:38:01:474","s_date":"2017\/04\/17 15:38:00:474"}, {"flw":198,"app":339,"lid":"15333","e_date":"2017\/04\/17 15:38:01:618","s_date":"2017\/04\/17 15:38:00:618"}, {"flw":59,"app":489,"lid":"15335","e_date":"2017\/04\/17 15:38:01:677","s_date":"2017\/04\/17 15:38:00:677"}, {"flw":527,"app":166,"lid":"15337","e_date":"2017\/04\/17 15:38:01:778","s_date":"2017\/04\/17 15:38:00:778"}, {"flw":527,"app":166,"lid":"15338","e_date":"2017\/04\/17 15:38:01:794","s_date":"2017\/04\/17 15:38:00:794"}, {"flw":975,"app":141,"lid":"15340","e_date":"2017\/04\/17 15:38:01:802","s_date":"2017\/04\/17 15:38:00:802"}, {"flw":706,"app":364,"lid":"15342","e_date":"2017\/04\/17 15:38:01:901","s_date":"2017\/04\/17 15:38:00:901"}, {"flw":314,"app":59,"lid":"15344","e_date":"2017\/04\/17 15:38:01:971","s_date":"2017\/04\/17 15:38:00:971"}, {"flw":318,"app":275,"lid":"15346","e_date":"2017\/04\/17 15:38:02:032","s_date":"2017\/04\/17 15:38:01:032"}, {"flw":318,"app":275,"lid":"15348","e_date":"2017\/04\/17 15:38:02:078","s_date":"2017\/04\/17 15:38:01:078"}, {"flw":42,"app":165,"lid":"15349","e_date":"2017\/04\/17 15:38:02:169","s_date":"2017\/04\/17 15:38:01:169"}, {"flw":244,"app":291,"lid":"15352","e_date":"2017\/04\/17 15:38:02:505","s_date":"2017\/04\/17 15:38:01:505"}, {"flw":248,"app":345,"lid":"15355","e_date":"2017\/04\/17 15:38:02:640","s_date":"2017\/04\/17 15:38:01:640"}, {"flw":166,"app":435,"lid":"15358","e_date":"2017\/04\/17 15:38:02:771","s_date":"2017\/04\/17 15:38:01:771"}, {"flw":670,"app":6,"lid":"15359","e_date":"2017\/04\/17 15:38:02:819","s_date":"2017\/04\/17 15:38:01:819"}, {"flw":155,"app":3,"lid":"15362","e_date":"2017\/04\/17 15:38:02:921","s_date":"2017\/04\/17 15:38:01:921"}, {"flw":425,"app":34,"lid":"15363","e_date":"2017\/04\/17 15:38:02:953","s_date":"2017\/04\/17 15:38:01:953"}, {"flw":518,"app":249,"lid":"15364","e_date":"2017\/04\/17 15:38:02:969","s_date":"2017\/04\/17 15:38:01:969"}, {"flw":328,"app":219,"lid":"15365","e_date":"2017\/04\/17 15:38:03:084","s_date":"2017\/04\/17 15:38:02:084"}, {"flw":932,"app":298,"lid":"15367","e_date":"2017\/04\/17 15:38:03:136","s_date":"2017\/04\/17 15:38:02:136"}, {"flw":805,"app":285,"lid":"15368","e_date":"2017\/04\/17 15:38:03:197","s_date":"2017\/04\/17 15:38:02:197"}, {"flw":323,"app":125,"lid":"15370","e_date":"2017\/04\/17 15:38:03:280","s_date":"2017\/04\/17 15:38:02:280"}, {"flw":155,"app":290,"lid":"15371","e_date":"2017\/04\/17 15:38:03:352","s_date":"2017\/04\/17 15:38:02:352"}, {"flw":564,"app":315,"lid":"15372","e_date":"2017\/04\/17 15:38:03:368","s_date":"2017\/04\/17 15:38:02:368"}, {"flw":395,"app":428,"lid":"15373","e_date":"2017\/04\/17 15:38:03:368","s_date":"2017\/04\/17 15:38:02:368"}, {"flw":155,"app":290,"lid":"15374","e_date":"2017\/04\/17 15:38:03:375","s_date":"2017\/04\/17 15:38:02:374"}, {"flw":506,"app":19,"lid":"15377","e_date":"2017\/04\/17 15:38:03:502","s_date":"2017\/04\/17 15:38:02:502"}, {"flw":684,"app":282,"lid":"15379","e_date":"2017\/04\/17 15:38:03:577","s_date":"2017\/04\/17 15:38:02:576"}, {"flw":220,"app":443,"lid":"15381","e_date":"2017\/04\/17 15:38:03:717","s_date":"2017\/04\/17 15:38:02:717"}, {"flw":440,"app":428,"lid":"15386","e_date":"2017\/04\/17 15:38:03:858","s_date":"2017\/04\/17 15:38:02:858"}, {"flw":89,"app":206,"lid":"15387","e_date":"2017\/04\/17 15:38:03:877","s_date":"2017\/04\/17 15:38:02:876"}, {"flw":735,"app":141,"lid":"15389","e_date":"2017\/04\/17 15:38:03:904","s_date":"2017\/04\/17 15:38:02:904"}, {"flw":63,"app":51,"lid":"15392","e_date":"2017\/04\/17 15:38:04:017","s_date":"2017\/04\/17 15:38:03:017"}, {"flw":676,"app":30,"lid":"15397","e_date":"2017\/04\/17 15:38:04:168","s_date":"2017\/04\/17 15:38:03:168"}, {"flw":38,"app":1,"lid":"15398","e_date":"2017\/04\/17 15:38:04:360","s_date":"2017\/04\/17 15:38:03:360"}, {"flw":266,"app":93,"lid":"15402","e_date":"2017\/04\/17 15:38:04:570","s_date":"2017\/04\/17 15:38:03:569"}, {"flw":660,"app":280,"lid":"15406","e_date":"2017\/04\/17 15:38:04:705","s_date":"2017\/04\/17 15:38:03:705"}, {"flw":453,"app":484,"lid":"15407","e_date":"2017\/04\/17 15:38:04:766","s_date":"2017\/04\/17 15:38:03:766"}, {"flw":56,"app":234,"lid":"15408","e_date":"2017\/04\/17 15:38:04:770","s_date":"2017\/04\/17 15:38:03:769"}, {"flw":49,"app":407,"lid":"15410","e_date":"2017\/04\/17 15:38:04:974","s_date":"2017\/04\/17 15:38:03:974"}, {"flw":975,"app":365,"lid":"15413","e_date":"2017\/04\/17 15:38:05:097","s_date":"2017\/04\/17 15:38:04:097"}, {"flw":810,"app":275,"lid":"15414","e_date":"2017\/04\/17 15:38:05:139","s_date":"2017\/04\/17 15:38:04:139"}, {"flw":810,"app":275,"lid":"15415","e_date":"2017\/04\/17 15:38:05:179","s_date":"2017\/04\/17 15:38:04:179"}, {"flw":737,"app":-1,"lid":"15416","e_date":"2017\/04\/17 15:38:05:212","s_date":"2017\/04\/17 15:38:04:212"}, {"flw":754,"app":308,"lid":"15418","e_date":"2017\/04\/17 15:38:05:286","s_date":"2017\/04\/17 15:38:04:286"}, {"flw":326,"app":251,"lid":"15423","e_date":"2017\/04\/17 15:38:05:451","s_date":"2017\/04\/17 15:38:04:451"}, {"flw":532,"app":428,"lid":"15424","e_date":"2017\/04\/17 15:38:05:470","s_date":"2017\/04\/17 15:38:04:470"}, {"flw":960,"app":365,"lid":"15426","e_date":"2017\/04\/17 15:38:05:620","s_date":"2017\/04\/17 15:38:04:620"}, {"flw":236,"app":466,"lid":"15427","e_date":"2017\/04\/17 15:38:05:654","s_date":"2017\/04\/17 15:38:04:654"}, {"flw":454,"app":87,"lid":"15428","e_date":"2017\/04\/17 15:38:05:659","s_date":"2017\/04\/17 15:38:04:659"}, {"flw":275,"app":392,"lid":"15431","e_date":"2017\/04\/17 15:38:05:803","s_date":"2017\/04\/17 15:38:04:803"}, {"flw":881,"app":435,"lid":"15432","e_date":"2017\/04\/17 15:38:05:873","s_date":"2017\/04\/17 15:38:04:873"}, {"flw":548,"app":62,"lid":"15434","e_date":"2017\/04\/17 15:38:05:951","s_date":"2017\/04\/17 15:38:04:950"}, {"flw":294,"app":281,"lid":"15436","e_date":"2017\/04\/17 15:38:06:028","s_date":"2017\/04\/17 15:38:05:028"}, {"flw":64,"app":462,"lid":"15437","e_date":"2017\/04\/17 15:38:06:043","s_date":"2017\/04\/17 15:38:05:043"}, {"flw":64,"app":462,"lid":"15438","e_date":"2017\/04\/17 15:38:06:063","s_date":"2017\/04\/17 15:38:05:062"}, {"flw":743,"app":29,"lid":"15440","e_date":"2017\/04\/17 15:38:06:125","s_date":"2017\/04\/17 15:38:05:125"}, {"flw":446,"app":339,"lid":"15442","e_date":"2017\/04\/17 15:38:06:271","s_date":"2017\/04\/17 15:38:05:271"}, {"flw":532,"app":367,"lid":"15443","e_date":"2017\/04\/17 15:38:06:299","s_date":"2017\/04\/17 15:38:05:298"}, {"flw":676,"app":361,"lid":"15446","e_date":"2017\/04\/17 15:38:06:396","s_date":"2017\/04\/17 15:38:05:396"}, {"flw":671,"app":284,"lid":"15449","e_date":"2017\/04\/17 15:38:06:532","s_date":"2017\/04\/17 15:38:05:532"}, {"flw":28,"app":19,"lid":"15451","e_date":"2017\/04\/17 15:38:06:604","s_date":"2017\/04\/17 15:38:05:604"}, {"flw":485,"app":93,"lid":"15452","e_date":"2017\/04\/17 15:38:06:673","s_date":"2017\/04\/17 15:38:05:673"}, {"flw":314,"app":345,"lid":"15454","e_date":"2017\/04\/17 15:38:06:743","s_date":"2017\/04\/17 15:38:05:743"}, {"flw":899,"app":202,"lid":"15455","e_date":"2017\/04\/17 15:38:06:803","s_date":"2017\/04\/17 15:38:05:802"}, {"flw":834,"app":481,"lid":"15456","e_date":"2017\/04\/17 15:38:06:809","s_date":"2017\/04\/17 15:38:05:809"}, {"flw":206,"app":443,"lid":"15457","e_date":"2017\/04\/17 15:38:06:819","s_date":"2017\/04\/17 15:38:05:819"}, {"flw":117,"app":82,"lid":"15458","e_date":"2017\/04\/17 15:38:06:844","s_date":"2017\/04\/17 15:38:05:843"}, {"flw":59,"app":251,"lid":"15460","e_date":"2017\/04\/17 15:38:06:871","s_date":"2017\/04\/17 15:38:05:869"}, {"flw":872,"app":127,"lid":"15461","e_date":"2017\/04\/17 15:38:06:878","s_date":"2017\/04\/17 15:38:05:878"}, {"flw":730,"app":166,"lid":"15467","e_date":"2017\/04\/17 15:38:07:111","s_date":"2017\/04\/17 15:38:06:111"}, {"flw":730,"app":166,"lid":"15468","e_date":"2017\/04\/17 15:38:07:127","s_date":"2017\/04\/17 15:38:06:126"}, {"flw":161,"app":421,"lid":"15469","e_date":"2017\/04\/17 15:38:07:132","s_date":"2017\/04\/17 15:38:06:132"}, {"flw":765,"app":219,"lid":"15470","e_date":"2017\/04\/17 15:38:07:187","s_date":"2017\/04\/17 15:38:06:187"}, {"flw":468,"app":459,"lid":"15471","e_date":"2017\/04\/17 15:38:07:244","s_date":"2017\/04\/17 15:38:06:244"}, {"flw":747,"app":-1,"lid":"15472","e_date":"2017\/04\/17 15:38:07:316","s_date":"2017\/04\/17 15:38:06:316"}, {"flw":815,"app":290,"lid":"15474","e_date":"2017\/04\/17 15:38:07:455","s_date":"2017\/04\/17 15:38:06:455"}, {"flw":242,"app":406,"lid":"15475","e_date":"2017\/04\/17 15:38:07:456","s_date":"2017\/04\/17 15:38:06:456"}, {"flw":815,"app":290,"lid":"15476","e_date":"2017\/04\/17 15:38:07:477","s_date":"2017\/04\/17 15:38:06:476"}, {"flw":428,"app":225,"lid":"15477","e_date":"2017\/04\/17 15:38:07:518","s_date":"2017\/04\/17 15:38:06:518"}, {"flw":329,"app":217,"lid":"15478","e_date":"2017\/04\/17 15:38:07:532","s_date":"2017\/04\/17 15:38:06:532"}, {"flw":816,"app":282,"lid":"15479","e_date":"2017\/04\/17 15:38:07:769","s_date":"2017\/04\/17 15:38:06:769"}, {"flw":896,"app":281,"lid":"15480","e_date":"2017\/04\/17 15:38:07:789","s_date":"2017\/04\/17 15:38:06:789"}, {"flw":695,"app":37,"lid":"15483","e_date":"2017\/04\/17 15:38:07:890","s_date":"2017\/04\/17 15:38:06:890"}, {"flw":405,"app":100,"lid":"15485","e_date":"2017\/04\/17 15:38:07:944","s_date":"2017\/04\/17 15:38:06:944"}, {"flw":466,"app":219,"lid":"15486","e_date":"2017\/04\/17 15:38:07:950","s_date":"2017\/04\/17 15:38:06:950"}, {"flw":746,"app":131,"lid":"15487","e_date":"2017\/04\/17 15:38:07:970","s_date":"2017\/04\/17 15:38:06:970"}, {"flw":506,"app":359,"lid":"15488","e_date":"2017\/04\/17 15:38:07:983","s_date":"2017\/04\/17 15:38:06:983"}, {"flw":506,"app":359,"lid":"15489","e_date":"2017\/04\/17 15:38:07:993","s_date":"2017\/04\/17 15:38:06:993"}, {"flw":65,"app":165,"lid":"15490","e_date":"2017\/04\/17 15:38:08:033","s_date":"2017\/04\/17 15:38:07:033"}, {"flw":649,"app":499,"lid":"15491","e_date":"2017\/04\/17 15:38:08:044","s_date":"2017\/04\/17 15:38:07:044"}, {"flw":321,"app":34,"lid":"15492","e_date":"2017\/04\/17 15:38:08:055","s_date":"2017\/04\/17 15:38:07:055"}, {"flw":61,"app":101,"lid":"15493","e_date":"2017\/04\/17 15:38:08:117","s_date":"2017\/04\/17 15:38:07:117"}, {"flw":666,"app":29,"lid":"15494","e_date":"2017\/04\/17 15:38:08:228","s_date":"2017\/04\/17 15:38:07:228"}, {"flw":444,"app":30,"lid":"15495","e_date":"2017\/04\/17 15:38:08:276","s_date":"2017\/04\/17 15:38:07:271"}, {"flw":108,"app":388,"lid":"15496","e_date":"2017\/04\/17 15:38:08:284","s_date":"2017\/04\/17 15:38:07:284"}, {"flw":888,"app":465,"lid":"15497","e_date":"2017\/04\/17 15:38:08:297","s_date":"2017\/04\/17 15:38:07:297"}, {"flw":595,"app":214,"lid":"15498","e_date":"2017\/04\/17 15:38:08:319","s_date":"2017\/04\/17 15:38:07:319"}, {"flw":877,"app":34,"lid":"15499","e_date":"2017\/04\/17 15:38:08:346","s_date":"2017\/04\/17 15:38:07:346"}, {"flw":260,"app":39,"lid":"15500","e_date":"2017\/04\/17 15:38:08:393","s_date":"2017\/04\/17 15:38:07:393"}, {"flw":238,"app":442,"lid":"15502","e_date":"2017\/04\/17 15:38:08:547","s_date":"2017\/04\/17 15:38:07:544"}, {"flw":336,"app":31,"lid":"15503","e_date":"2017\/04\/17 15:38:08:547","s_date":"2017\/04\/17 15:38:07:545"}, {"flw":709,"app":291,"lid":"15505","e_date":"2017\/04\/17 15:38:08:609","s_date":"2017\/04\/17 15:38:07:609"}, {"flw":756,"app":199,"lid":"15506","e_date":"2017\/04\/17 15:38:08:624","s_date":"2017\/04\/17 15:38:07:624"}, {"flw":65,"app":284,"lid":"15507","e_date":"2017\/04\/17 15:38:08:635","s_date":"2017\/04\/17 15:38:07:635"}, {"flw":266,"app":19,"lid":"15508","e_date":"2017\/04\/17 15:38:08:707","s_date":"2017\/04\/17 15:38:07:707"}, {"flw":735,"app":472,"lid":"15509","e_date":"2017\/04\/17 15:38:08:753","s_date":"2017\/04\/17 15:38:07:753"}, {"flw":102,"app":488,"lid":"15515","e_date":"2017\/04\/17 15:38:08:927","s_date":"2017\/04\/17 15:38:07:927"}, {"flw":163,"app":76,"lid":"15516","e_date":"2017\/04\/17 15:38:08:947","s_date":"2017\/04\/17 15:38:07:947"}, {"flw":19,"app":483,"lid":"15517","e_date":"2017\/04\/17 15:38:08:952","s_date":"2017\/04\/17 15:38:07:952"}, {"flw":483,"app":315,"lid":"15518","e_date":"2017\/04\/17 15:38:08:955","s_date":"2017\/04\/17 15:38:07:955"}, {"flw":94,"app":59,"lid":"15521","e_date":"2017\/04\/17 15:38:09:073","s_date":"2017\/04\/17 15:38:08:073"}, {"flw":455,"app":462,"lid":"15522","e_date":"2017\/04\/17 15:38:09:145","s_date":"2017\/04\/17 15:38:08:145"}, {"flw":637,"app":434,"lid":"15523","e_date":"2017\/04\/17 15:38:09:145","s_date":"2017\/04\/17 15:38:08:145"}, {"flw":455,"app":462,"lid":"15525","e_date":"2017\/04\/17 15:38:09:166","s_date":"2017\/04\/17 15:38:08:166"}, {"flw":637,"app":434,"lid":"15526","e_date":"2017\/04\/17 15:38:09:186","s_date":"2017\/04\/17 15:38:08:186"}, {"flw":305,"app":298,"lid":"15527","e_date":"2017\/04\/17 15:38:09:239","s_date":"2017\/04\/17 15:38:08:238"}, {"flw":882,"app":-1,"lid":"15529","e_date":"2017\/04\/17 15:38:09:421","s_date":"2017\/04\/17 15:38:08:421"}, {"flw":667,"app":229,"lid":"15530","e_date":"2017\/04\/17 15:38:09:436","s_date":"2017\/04\/17 15:38:08:436"}, {"flw":115,"app":1,"lid":"15531","e_date":"2017\/04\/17 15:38:09:464","s_date":"2017\/04\/17 15:38:08:464"}, {"flw":367,"app":481,"lid":"15534","e_date":"2017\/04\/17 15:38:09:641","s_date":"2017\/04\/17 15:38:08:641"}, {"flw":534,"app":85,"lid":"15535","e_date":"2017\/04\/17 15:38:09:817","s_date":"2017\/04\/17 15:38:08:817"}, {"flw":959,"app":407,"lid":"15536","e_date":"2017\/04\/17 15:38:09:893","s_date":"2017\/04\/17 15:38:08:893"}, {"flw":491,"app":392,"lid":"15537","e_date":"2017\/04\/17 15:38:09:909","s_date":"2017\/04\/17 15:38:08:908"}, {"flw":574,"app":202,"lid":"15538","e_date":"2017\/04\/17 15:38:09:982","s_date":"2017\/04\/17 15:38:08:982"}, {"flw":794,"app":271,"lid":"15539","e_date":"2017\/04\/17 15:38:09:997","s_date":"2017\/04\/17 15:38:08:997"}, {"flw":40,"app":126,"lid":"15541","e_date":"2017\/04\/17 15:38:10:039","s_date":"2017\/04\/17 15:38:09:039"}, {"flw":649,"app":289,"lid":"15542","e_date":"2017\/04\/17 15:38:10:153","s_date":"2017\/04\/17 15:38:09:153"}, {"flw":358,"app":29,"lid":"15543","e_date":"2017\/04\/17 15:38:10:187","s_date":"2017\/04\/17 15:38:09:186"}, {"flw":670,"app":365,"lid":"15544","e_date":"2017\/04\/17 15:38:10:200","s_date":"2017\/04\/17 15:38:09:200"}, {"flw":789,"app":358,"lid":"15545","e_date":"2017\/04\/17 15:38:10:219","s_date":"2017\/04\/17 15:38:09:219"}, {"flw":426,"app":421,"lid":"15546","e_date":"2017\/04\/17 15:38:10:233","s_date":"2017\/04\/17 15:38:09:233"}, {"flw":38,"app":275,"lid":"15547","e_date":"2017\/04\/17 15:38:10:243","s_date":"2017\/04\/17 15:38:09:243"}, {"flw":38,"app":275,"lid":"15548","e_date":"2017\/04\/17 15:38:10:283","s_date":"2017\/04\/17 15:38:09:283"}, {"flw":56,"app":55,"lid":"15549","e_date":"2017\/04\/17 15:38:10:291","s_date":"2017\/04\/17 15:38:09:291"}, {"flw":749,"app":310,"lid":"15550","e_date":"2017\/04\/17 15:38:10:325","s_date":"2017\/04\/17 15:38:09:324"}, {"flw":322,"app":374,"lid":"15552","e_date":"2017\/04\/17 15:38:10:420","s_date":"2017\/04\/17 15:38:09:420"}, {"flw":466,"app":315,"lid":"15553","e_date":"2017\/04\/17 15:38:10:470","s_date":"2017\/04\/17 15:38:09:470"}, {"flw":416,"app":39,"lid":"15554","e_date":"2017\/04\/17 15:38:10:495","s_date":"2017\/04\/17 15:38:09:495"}, {"flw":241,"app":39,"lid":"15555","e_date":"2017\/04\/17 15:38:10:542","s_date":"2017\/04\/17 15:38:09:542"}, {"flw":536,"app":225,"lid":"15557","e_date":"2017\/04\/17 15:38:10:620","s_date":"2017\/04\/17 15:38:09:619"}, {"flw":835,"app":262,"lid":"15558","e_date":"2017\/04\/17 15:38:10:654","s_date":"2017\/04\/17 15:38:09:654"}, {"flw":751,"app":172,"lid":"15559","e_date":"2017\/04\/17 15:38:10:658","s_date":"2017\/04\/17 15:38:09:658"}, {"flw":739,"app":82,"lid":"15562","e_date":"2017\/04\/17 15:38:10:684","s_date":"2017\/04\/17 15:38:09:684"}, {"flw":491,"app":1,"lid":"15564","e_date":"2017\/04\/17 15:38:10:736","s_date":"2017\/04\/17 15:38:09:736"}, {"flw":191,"app":280,"lid":"15567","e_date":"2017\/04\/17 15:38:10:807","s_date":"2017\/04\/17 15:38:09:807"}, {"flw":773,"app":199,"lid":"15568","e_date":"2017\/04\/17 15:38:10:814","s_date":"2017\/04\/17 15:38:09:814"}, {"flw":261,"app":234,"lid":"15569","e_date":"2017\/04\/17 15:38:10:873","s_date":"2017\/04\/17 15:38:09:873"}, {"flw":807,"app":447,"lid":"15570","e_date":"2017\/04\/17 15:38:10:886","s_date":"2017\/04\/17 15:38:09:886"}, {"flw":305,"app":251,"lid":"15572","e_date":"2017\/04\/17 15:38:10:974","s_date":"2017\/04\/17 15:38:09:974"}, {"flw":457,"app":196,"lid":"15573","e_date":"2017\/04\/17 15:38:10:988","s_date":"2017\/04\/17 15:38:09:988"}, {"flw":96,"app":3,"lid":"15574","e_date":"2017\/04\/17 15:38:11:068","s_date":"2017\/04\/17 15:38:10:068"}, {"flw":104,"app":131,"lid":"15575","e_date":"2017\/04\/17 15:38:11:073","s_date":"2017\/04\/17 15:38:10:073"}, {"flw":22,"app":51,"lid":"15577","e_date":"2017\/04\/17 15:38:11:120","s_date":"2017\/04\/17 15:38:10:120"}, {"flw":452,"app":442,"lid":"15578","e_date":"2017\/04\/17 15:38:11:152","s_date":"2017\/04\/17 15:38:10:152"}, {"flw":482,"app":102,"lid":"15579","e_date":"2017\/04\/17 15:38:11:235","s_date":"2017\/04\/17 15:38:10:234"}, {"flw":579,"app":480,"lid":"15581","e_date":"2017\/04\/17 15:38:11:456","s_date":"2017\/04\/17 15:38:10:456"}, {"flw":171,"app":406,"lid":"15585","e_date":"2017\/04\/17 15:38:11:564","s_date":"2017\/04\/17 15:38:10:564"}, {"flw":214,"app":291,"lid":"15588","e_date":"2017\/04\/17 15:38:11:711","s_date":"2017\/04\/17 15:38:10:711"}, {"flw":907,"app":339,"lid":"15589","e_date":"2017\/04\/17 15:38:11:720","s_date":"2017\/04\/17 15:38:10:720"}, {"flw":879,"app":466,"lid":"15590","e_date":"2017\/04\/17 15:38:11:759","s_date":"2017\/04\/17 15:38:10:756"}, {"flw":339,"app":87,"lid":"15591","e_date":"2017\/04\/17 15:38:11:762","s_date":"2017\/04\/17 15:38:10:762"}, {"flw":717,"app":166,"lid":"15594","e_date":"2017\/04\/17 15:38:11:881","s_date":"2017\/04\/17 15:38:10:881"}, {"flw":717,"app":166,"lid":"15595","e_date":"2017\/04\/17 15:38:11:895","s_date":"2017\/04\/17 15:38:10:895"}, {"flw":366,"app":481,"lid":"15596","e_date":"2017\/04\/17 15:38:11:913","s_date":"2017\/04\/17 15:38:10:913"}, {"flw":499,"app":298,"lid":"15597","e_date":"2017\/04\/17 15:38:11:918","s_date":"2017\/04\/17 15:38:10:918"}, {"flw":97,"app":249,"lid":"15598","e_date":"2017\/04\/17 15:38:11:956","s_date":"2017\/04\/17 15:38:10:956"}, {"flw":17,"app":489,"lid":"15599","e_date":"2017\/04\/17 15:38:12:046","s_date":"2017\/04\/17 15:38:11:045"}, {"flw":928,"app":280,"lid":"15601","e_date":"2017\/04\/17 15:38:12:121","s_date":"2017\/04\/17 15:38:11:121"}, {"flw":168,"app":202,"lid":"15603","e_date":"2017\/04\/17 15:38:12:165","s_date":"2017\/04\/17 15:38:11:165"}, {"flw":996,"app":165,"lid":"15605","e_date":"2017\/04\/17 15:38:12:272","s_date":"2017\/04\/17 15:38:11:272"}, {"flw":476,"app":289,"lid":"15606","e_date":"2017\/04\/17 15:38:12:295","s_date":"2017\/04\/17 15:38:11:295"}, {"flw":888,"app":358,"lid":"15607","e_date":"2017\/04\/17 15:38:12:321","s_date":"2017\/04\/17 15:38:11:321"}, {"flw":690,"app":125,"lid":"15608","e_date":"2017\/04\/17 15:38:12:383","s_date":"2017\/04\/17 15:38:11:383"}, {"flw":39,"app":388,"lid":"15609","e_date":"2017\/04\/17 15:38:12:388","s_date":"2017\/04\/17 15:38:11:388"}, {"flw":125,"app":55,"lid":"15610","e_date":"2017\/04\/17 15:38:12:392","s_date":"2017\/04\/17 15:38:11:392"}, {"flw":772,"app":214,"lid":"15611","e_date":"2017\/04\/17 15:38:12:422","s_date":"2017\/04\/17 15:38:11:422"}, {"flw":381,"app":310,"lid":"15612","e_date":"2017\/04\/17 15:38:12:427","s_date":"2017\/04\/17 15:38:11:427"}, {"flw":316,"app":290,"lid":"15613","e_date":"2017\/04\/17 15:38:12:480","s_date":"2017\/04\/17 15:38:11:480"}, {"flw":316,"app":290,"lid":"15614","e_date":"2017\/04\/17 15:38:12:503","s_date":"2017\/04\/17 15:38:11:503"}, {"flw":967,"app":206,"lid":"15617","e_date":"2017\/04\/17 15:38:12:694","s_date":"2017\/04\/17 15:38:11:694"}, {"flw":913,"app":489,"lid":"15618","e_date":"2017\/04\/17 15:38:12:780","s_date":"2017\/04\/17 15:38:11:780"}]
Confirm Map: {}
last lid: 15644
