SLF4J: Failed to load class "org.slf4j.impl.StaticLoggerBinder".
SLF4J: Defaulting to no-operation (NOP) logger implementation
SLF4J: See http://www.slf4j.org/codes.html#StaticLoggerBinder for further details.
[AbnormalityDetector] RETURN : 16448 is abnormal(X).
정상을 비정상이라고 판단. lid: 16448
[AbnormalityDetector] RETURN : 16449 is abnormal(X).
정상을 비정상이라고 판단. lid: 16449
[AbnormalityDetector] RETURN : 16450 is abnormal(X).
정상을 비정상이라고 판단. lid: 16450
[AbnormalityDetector] RETURN : 16451 is abnormal(X).
정상을 비정상이라고 판단. lid: 16451
[AbnormalityDetector] RETURN : 16452 is abnormal(X).
정상을 비정상이라고 판단. lid: 16452
[AbnormalityDetector] RETURN : 16453 is abnormal(X).
정상을 비정상이라고 판단. lid: 16453
[AbnormalityDetector] RETURN : 16454 is abnormal(X).
정상을 비정상이라고 판단. lid: 16454
[AbnormalityDetector] RETURN : 16455 is abnormal(X).
정상을 비정상이라고 판단. lid: 16455
[AbnormalityDetector] RETURN : 16456 is abnormal(X).
정상을 비정상이라고 판단. lid: 16456
[AbnormalityDetector] RETURN : 16457 is abnormal(X).
정상을 비정상이라고 판단. lid: 16457
[AbnormalityDetector] RETURN : 16458 is abnormal(X).
정상을 비정상이라고 판단. lid: 16458
[AbnormalityDetector] RETURN : 16459 is abnormal(X).
정상을 비정상이라고 판단. lid: 16459
[AbnormalityDetector] RETURN : 16461 is abnormal(X).
정상을 비정상이라고 판단. lid: 16461
[AbnormalityDetector] RETURN : 16460 is abnormal(X).
정상을 비정상이라고 판단. lid: 16460
[AbnormalityDetector] RETURN : 16462 is abnormal(X).
정상을 비정상이라고 판단. lid: 16462
[AbnormalityDetector] RETURN : 16463 is abnormal(X).
정상을 비정상이라고 판단. lid: 16463
[AbnormalityDetector] RETURN : 16464 is abnormal(X).
정상을 비정상이라고 판단. lid: 16464
Abnormal Map: {}
Confirm Map: {}
Abnormal flw:966, lid: 1
[AbnormalityDetector] RETURN : 1 is abnormal(X).
Abnormal flw:601, lid: 18
Abnormal flw:484, lid: 59
[AbnormalityDetector] RETURN : 59 is abnormal(X).
Abnormal flw:345, lid: 122
[AbnormalityDetector] RETURN : 122 is abnormal(X).
Abnormal flw:291, lid: 206
[AbnormalityDetector] RETURN : 206 is abnormal(X).
Abnormal flw:555, lid: 291
[AbnormalityDetector] RETURN : 291 is abnormal(X).
Abnormal flw:534, lid: 360
Lid 18 is abnormal(X). (removed by timeout)
[AbnormalityDetector] RETURN : 360 is abnormal(X).
Abnormal flw:808, lid: 413
Abnormal flw:298, lid: 451
[AbnormalityDetector] RETURN : 451 is abnormal(X).
Abnormal flw:888, lid: 484
[AbnormalityDetector] RETURN : 484 is abnormal(X).
Abnormal flw:442, lid: 525
[AbnormalityDetector] RETURN : 525 is abnormal(X).
Abnormal flw:962, lid: 572
[AbnormalityDetector] RETURN : 572 is abnormal(X).
Abnormal flw:665, lid: 631
Lid 413 is abnormal(X). (removed by timeout)
[AbnormalityDetector] RETURN : 631 is abnormal(X).
Abnormal flw:983, lid: 695
[AbnormalityDetector] RETURN : 695 is abnormal(X).
Abnormal flw:225, lid: 756
[AbnormalityDetector] RETURN : 756 is abnormal(X).
Abnormal flw:262, lid: 820
[AbnormalityDetector] RETURN : 820 is abnormal(X).
Abnormal flw:361, lid: 874
[AbnormalityDetector] RETURN : 874 is abnormal(X).
Abnormal flw:790, lid: 928
[AbnormalityDetector] RETURN : 928 is abnormal(X).
Abnormal flw:531, lid: 982
[AbnormalityDetector] RETURN : 982 is abnormal(X).
Abnormal flw:280, lid: 1033
[AbnormalityDetector] RETURN : 1033 is abnormal(X).
Abnormal flw:943, lid: 1086
[AbnormalityDetector] RETURN : 1086 is abnormal(X).
Abnormal flw:587, lid: 1127
[AbnormalityDetector] RETURN : 1127 is abnormal(X).
Abnormal flw:539, lid: 1171
[AbnormalityDetector] RETURN : 1171 is abnormal(X).
Abnormal flw:755, lid: 1223
[AbnormalityDetector] RETURN : 1223 is abnormal(X).
Abnormal flw:962, lid: 1287
[AbnormalityDetector] RETURN : 1287 is abnormal(X).
Abnormal flw:626, lid: 1359
[AbnormalityDetector] RETURN : 1359 is abnormal(X).
Abnormal flw:199, lid: 1424
[AbnormalityDetector] RETURN : 1424 is abnormal(X).
Abnormal flw:921, lid: 1480
[AbnormalityDetector] RETURN : 1480 is abnormal(X).
Abnormal Map: {}
Confirm Map: {}
Abnormal flw:600, lid: 1521
[AbnormalityDetector] RETURN : 1521 is abnormal(X).
Abnormal flw:289, lid: 1566
[AbnormalityDetector] RETURN : 1566 is abnormal(X).
Abnormal flw:166, lid: 1611
[AbnormalityDetector] RETURN : 1611 is abnormal(X).
Abnormal flw:934, lid: 1666
[AbnormalityDetector] RETURN : 1666 is abnormal(X).
Abnormal flw:892, lid: 1723
[AbnormalityDetector] RETURN : 1723 is abnormal(X).
Abnormal flw:631, lid: 1776
[AbnormalityDetector] RETURN : 1776 is abnormal(X).
Abnormal flw:62, lid: 1841
[AbnormalityDetector] RETURN : 1841 is abnormal(X).
Abnormal flw:965, lid: 1898
[AbnormalityDetector] RETURN : 1898 is abnormal(X).
Abnormal flw:928, lid: 1958
[AbnormalityDetector] RETURN : 1958 is abnormal(X).
Abnormal flw:275, lid: 2015
[AbnormalityDetector] RETURN : 2015 is abnormal(X).
Abnormal flw:281, lid: 2061
[AbnormalityDetector] RETURN : 2061 is abnormal(X).
Abnormal flw:714, lid: 2107
[AbnormalityDetector] RETURN : 2107 is abnormal(X).
Abnormal flw:859, lid: 2157
[AbnormalityDetector] RETURN : 2157 is abnormal(X).
Abnormal flw:664, lid: 2210
[AbnormalityDetector] RETURN : 2210 is abnormal(X).
Abnormal flw:867, lid: 2265
[AbnormalityDetector] RETURN : 2265 is abnormal(X).
Abnormal flw:839, lid: 2323
[AbnormalityDetector] RETURN : 2323 is abnormal(X).
Abnormal flw:935, lid: 2377
[AbnormalityDetector] RETURN : 2377 is abnormal(X).
Abnormal flw:790, lid: 2432
[AbnormalityDetector] RETURN : 2432 is abnormal(X).
Abnormal flw:947, lid: 2494
[AbnormalityDetector] RETURN : 2494 is abnormal(X).
Abnormal flw:706, lid: 2547
Abnormal flw:489, lid: 2596
[AbnormalityDetector] RETURN : 2596 is abnormal(X).
Abnormal flw:980, lid: 2647
[AbnormalityDetector] RETURN : 2647 is abnormal(X).
Abnormal flw:251, lid: 2697
[AbnormalityDetector] RETURN : 2697 is abnormal(X).
Abnormal flw:219, lid: 2751
[AbnormalityDetector] RETURN : 2751 is abnormal(X).
Abnormal flw:406, lid: 2809
Lid 2547 is abnormal(X). (removed by timeout)
Abnormal flw:625, lid: 2868
[AbnormalityDetector] RETURN : 2868 is abnormal(X).
Abnormal flw:166, lid: 2925
[AbnormalityDetector] RETURN : 2925 is abnormal(X).
Abnormal flw:364, lid: 2978
[AbnormalityDetector] RETURN : 2978 is abnormal(X).
Abnormal flw:959, lid: 3029
Abnormal Map: {3029=0, 2809=0}
Confirm Map: {}
[AbnormalityDetector] RETURN : 3029 is abnormal(X).
Abnormal flw:907, lid: 3081
Lid 2809 is abnormal(X). (removed by timeout)
Abnormal flw:374, lid: 3132
[AbnormalityDetector] RETURN : 3132 is abnormal(X).
Abnormal flw:481, lid: 3188
[AbnormalityDetector] RETURN : 3188 is abnormal(X).
Abnormal flw:585, lid: 3249
[AbnormalityDetector] RETURN : 3249 is abnormal(X).
Abnormal flw:6, lid: 3301
Abnormal flw:734, lid: 3353
Lid 3081 is abnormal(X). (removed by timeout)
[AbnormalityDetector] RETURN : 3353 is abnormal(X).
Abnormal flw:102, lid: 3405
Abnormal flw:859, lid: 3458
[AbnormalityDetector] RETURN : 3458 is abnormal(X).
Abnormal flw:30, lid: 3514
[AbnormalityDetector] RETURN : 3514 is abnormal(X).
Abnormal flw:810, lid: 3570
Lid 3301 is abnormal(X). (removed by timeout)
Abnormal flw:488, lid: 3631
[AbnormalityDetector] RETURN : 3631 is abnormal(X).
Abnormal flw:501, lid: 3685
Lid 3405 is abnormal(X). (removed by timeout)
Abnormal flw:784, lid: 3739
[AbnormalityDetector] RETURN : 3739 is abnormal(X).
Abnormal flw:202, lid: 3791
Abnormal flw:76, lid: 3838
Lid 3570 is abnormal(X). (removed by timeout)
[AbnormalityDetector] RETURN : 3838 is abnormal(X).
Abnormal flw:785, lid: 3888
[AbnormalityDetector] RETURN : 3888 is abnormal(X).
Abnormal flw:82, lid: 3941
Lid 3685 is abnormal(X). (removed by timeout)
[AbnormalityDetector] RETURN : 3941 is abnormal(X).
Abnormal flw:717, lid: 3993
[AbnormalityDetector] RETURN : 3993 is abnormal(X).
Abnormal flw:3, lid: 4051
Lid 3791 is abnormal(X). (removed by timeout)
Abnormal flw:209, lid: 4109
Abnormal flw:315, lid: 4167
[AbnormalityDetector] RETURN : 4167 is abnormal(X).
Abnormal flw:999, lid: 4225
[AbnormalityDetector] RETURN : 4225 is abnormal(X).
Abnormal flw:127, lid: 4281
[AbnormalityDetector] RETURN : 4281 is abnormal(X).
Abnormal flw:365, lid: 4332
Lid 4051 is abnormal(X). (removed by timeout)
[AbnormalityDetector] RETURN : 4332 is abnormal(X).
Abnormal flw:29, lid: 4375
Lid 4109 is abnormal(X). (removed by timeout)
[AbnormalityDetector] RETURN : 4375 is abnormal(X).
Abnormal flw:641, lid: 4423
[AbnormalityDetector] RETURN : 4423 is abnormal(X).
Abnormal flw:551, lid: 4470
[AbnormalityDetector] RETURN : 4470 is abnormal(X).
Abnormal flw:934, lid: 4529
[AbnormalityDetector] RETURN : 4529 is abnormal(X).
Abnormal flw:271, lid: 4599
Abnormal Map: {}
Confirm Map: {}
[AbnormalityDetector] RETURN : 4599 is abnormal(X).
Abnormal flw:282, lid: 4660
[AbnormalityDetector] RETURN : 4660 is abnormal(X).
Abnormal flw:358, lid: 4717
[AbnormalityDetector] RETURN : 4717 is abnormal(X).
Abnormal flw:172, lid: 4760
[AbnormalityDetector] RETURN : 4760 is abnormal(X).
Abnormal flw:519, lid: 4808
[AbnormalityDetector] RETURN : 4808 is abnormal(X).
Abnormal flw:559, lid: 4858
[AbnormalityDetector] RETURN : 4858 is abnormal(X).
Abnormal flw:938, lid: 4911
[AbnormalityDetector] RETURN : 4911 is abnormal(X).
Abnormal flw:537, lid: 4973
[AbnormalityDetector] RETURN : 4973 is abnormal(X).
Abnormal flw:749, lid: 5023
[AbnormalityDetector] RETURN : 5023 is abnormal(X).
Abnormal flw:972, lid: 5075
[AbnormalityDetector] RETURN : 5075 is abnormal(X).
Abnormal flw:729, lid: 5128
[AbnormalityDetector] RETURN : 5128 is abnormal(X).
Abnormal flw:696, lid: 5190
[AbnormalityDetector] RETURN : 5190 is abnormal(X).
Abnormal flw:178, lid: 5251
[AbnormalityDetector] RETURN : 5251 is abnormal(X).
Abnormal flw:775, lid: 5313
[AbnormalityDetector] RETURN : 5313 is abnormal(X).
Abnormal flw:93, lid: 5367
[AbnormalityDetector] RETURN : 5367 is abnormal(X).
Abnormal flw:93, lid: 5404
[AbnormalityDetector] RETURN : 5404 is abnormal(X).
Abnormal flw:679, lid: 5446
[AbnormalityDetector] RETURN : 5446 is abnormal(X).
Abnormal flw:837, lid: 5494
[AbnormalityDetector] RETURN : 5494 is abnormal(X).
Abnormal flw:600, lid: 5554
[AbnormalityDetector] RETURN : 5554 is abnormal(X).
Abnormal flw:579, lid: 5627
[AbnormalityDetector] RETURN : 5627 is abnormal(X).
Abnormal flw:962, lid: 5696
[AbnormalityDetector] RETURN : 5696 is abnormal(X).
Abnormal flw:227, lid: 5756
[AbnormalityDetector] RETURN : 5756 is abnormal(X).
Abnormal flw:867, lid: 5804
[AbnormalityDetector] RETURN : 5804 is abnormal(X).
Abnormal flw:940, lid: 5843
[AbnormalityDetector] RETURN : 5843 is abnormal(X).
Abnormal flw:820, lid: 5882
[AbnormalityDetector] RETURN : 5882 is abnormal(X).
Abnormal flw:419, lid: 5927
[AbnormalityDetector] RETURN : 5927 is abnormal(X).
Abnormal flw:720, lid: 5983
[AbnormalityDetector] RETURN : 5983 is abnormal(X).
Abnormal flw:600, lid: 6046
[AbnormalityDetector] RETURN : 6046 is abnormal(X).
Abnormal flw:942, lid: 6114
[AbnormalityDetector] RETURN : 6114 is abnormal(X).
Abnormal Map: {}
Confirm Map: {}
Abnormal flw:169, lid: 6181
[AbnormalityDetector] RETURN : 6181 is abnormal(X).
Abnormal flw:239, lid: 6233
[AbnormalityDetector] RETURN : 6233 is abnormal(X).
Abnormal flw:349, lid: 6281
[AbnormalityDetector] RETURN : 6281 is abnormal(X).
Abnormal flw:457, lid: 6322
[AbnormalityDetector] RETURN : 6322 is abnormal(X).
Abnormal flw:609, lid: 6369
Abnormal flw:981, lid: 6423
[AbnormalityDetector] RETURN : 6423 is abnormal(X).
Abnormal flw:702, lid: 6480
Abnormal flw:84, lid: 6543
[AbnormalityDetector] RETURN : 6543 is abnormal(X).
Abnormal flw:800, lid: 6597
[AbnormalityDetector] RETURN : 6597 is abnormal(X).
Abnormal flw:25, lid: 6650
Lid 6369 is abnormal(X). (removed by timeout)
[AbnormalityDetector] RETURN : 6650 is abnormal(X).
Abnormal flw:956, lid: 6704
[AbnormalityDetector] RETURN : 6704 is abnormal(X).
Abnormal flw:216, lid: 6761
Lid 6480 is abnormal(X). (removed by timeout)
[AbnormalityDetector] RETURN : 6761 is abnormal(X).
Abnormal flw:979, lid: 6818
[AbnormalityDetector] RETURN : 6818 is abnormal(X).
Abnormal flw:641, lid: 6873
[AbnormalityDetector] RETURN : 6873 is abnormal(X).
Abnormal flw:158, lid: 6923
[AbnormalityDetector] RETURN : 6923 is abnormal(X).
Abnormal flw:240, lid: 6972
[AbnormalityDetector] RETURN : 6972 is abnormal(X).
Abnormal flw:71, lid: 7025
[AbnormalityDetector] RETURN : 7025 is abnormal(X).
Abnormal flw:929, lid: 7078
[AbnormalityDetector] RETURN : 7078 is abnormal(X).
Abnormal flw:430, lid: 7139
[AbnormalityDetector] RETURN : 7139 is abnormal(X).
Abnormal flw:956, lid: 7198
[AbnormalityDetector] RETURN : 7198 is abnormal(X).
Abnormal flw:926, lid: 7251
[AbnormalityDetector] RETURN : 7251 is abnormal(X).
Abnormal flw:891, lid: 7307
[AbnormalityDetector] RETURN : 7307 is abnormal(X).
Abnormal flw:154, lid: 7356
[AbnormalityDetector] RETURN : 7356 is abnormal(X).
Abnormal flw:133, lid: 7406
[AbnormalityDetector] RETURN : 7406 is abnormal(X).
Abnormal flw:74, lid: 7457
[AbnormalityDetector] RETURN : 7457 is abnormal(X).
Abnormal flw:314, lid: 7514
[AbnormalityDetector] RETURN : 7514 is abnormal(X).
Abnormal flw:156, lid: 7572
[AbnormalityDetector] RETURN : 7572 is abnormal(X).
Abnormal flw:187, lid: 7629
[AbnormalityDetector] RETURN : 7629 is abnormal(X).
Abnormal flw:978, lid: 7686
Abnormal Map: {}
Confirm Map: {}
[AbnormalityDetector] RETURN : 7686 is abnormal(X).
Abnormal flw:80, lid: 7737
[AbnormalityDetector] RETURN : 7737 is abnormal(X).
Abnormal flw:22, lid: 7786
[AbnormalityDetector] RETURN : 7786 is abnormal(X).
Abnormal flw:937, lid: 7837
[AbnormalityDetector] RETURN : 7837 is abnormal(X).
Abnormal flw:903, lid: 7889
Abnormal flw:664, lid: 7949
[AbnormalityDetector] RETURN : 7949 is abnormal(X).
Abnormal flw:221, lid: 8008
[AbnormalityDetector] RETURN : 8008 is abnormal(X).
Abnormal flw:666, lid: 8057
[AbnormalityDetector] RETURN : 8057 is abnormal(X).
Abnormal flw:689, lid: 8117
[AbnormalityDetector] RETURN : 8117 is abnormal(X).
Abnormal flw:774, lid: 8165
Lid 7889 is abnormal(X). (removed by timeout)
[AbnormalityDetector] RETURN : 8165 is abnormal(X).
Abnormal flw:113, lid: 8214
Abnormal flw:773, lid: 8267
[AbnormalityDetector] RETURN : 8267 is abnormal(X).
Abnormal flw:91, lid: 8320
[AbnormalityDetector] RETURN : 8320 is abnormal(X).
Abnormal flw:146, lid: 8379
[AbnormalityDetector] RETURN : 8379 is abnormal(X).
Abnormal flw:910, lid: 8438
Abnormal flw:268, lid: 8499
Lid 8214 is abnormal(X). (removed by timeout)
[AbnormalityDetector] RETURN : 8499 is abnormal(X).
Abnormal flw:511, lid: 8547
Abnormal flw:299, lid: 8595
[AbnormalityDetector] RETURN : 8595 is abnormal(X).
Abnormal flw:970, lid: 8642
[AbnormalityDetector] RETURN : 8642 is abnormal(X).
Abnormal flw:843, lid: 8699
Lid 8438 is abnormal(X). (removed by timeout)
[AbnormalityDetector] RETURN : 8699 is abnormal(X).
Abnormal flw:383, lid: 8752
[AbnormalityDetector] RETURN : 8752 is abnormal(X).
Abnormal flw:256, lid: 8811
Lid 8547 is abnormal(X). (removed by timeout)
[AbnormalityDetector] RETURN : 8811 is abnormal(X).
Abnormal flw:139, lid: 8874
[AbnormalityDetector] RETURN : 8874 is abnormal(X).
Abnormal flw:571, lid: 8925
[AbnormalityDetector] RETURN : 8925 is abnormal(X).
Abnormal flw:1, lid: 8983
Abnormal flw:50, lid: 9034
[AbnormalityDetector] RETURN : 9034 is abnormal(X).
Abnormal flw:428, lid: 9084
[AbnormalityDetector] RETURN : 9084 is abnormal(X).
Abnormal flw:846, lid: 9138
[AbnormalityDetector] RETURN : 9138 is abnormal(X).
Abnormal flw:534, lid: 9190
[AbnormalityDetector] RETURN : 9190 is abnormal(X).
Abnormal Map: {8983=0}
Confirm Map: {}
Abnormal flw:365, lid: 9244
Lid 8983 is abnormal(X). (removed by timeout)
[AbnormalityDetector] RETURN : 9244 is abnormal(X).
Abnormal flw:404, lid: 9296
Abnormal flw:181, lid: 9352
[AbnormalityDetector] RETURN : 9352 is abnormal(X).
Abnormal flw:384, lid: 9410
[AbnormalityDetector] RETURN : 9410 is abnormal(X).
Abnormal flw:605, lid: 9466
Abnormal flw:820, lid: 9521
[AbnormalityDetector] RETURN : 9521 is abnormal(X).
Abnormal flw:364, lid: 9573
Lid 9296 is abnormal(X). (removed by timeout)
[AbnormalityDetector] RETURN : 9573 is abnormal(X).
Abnormal flw:630, lid: 9620
[AbnormalityDetector] RETURN : 9620 is abnormal(X).
Abnormal flw:701, lid: 9671
Abnormal flw:451, lid: 9729
Lid 9466 is abnormal(X). (removed by timeout)
[AbnormalityDetector] RETURN : 9729 is abnormal(X).
Abnormal flw:439, lid: 9781
[AbnormalityDetector] RETURN : 9781 is abnormal(X).
Abnormal flw:173, lid: 9837
[AbnormalityDetector] RETURN : 9837 is abnormal(X).
Abnormal flw:323, lid: 9901
[AbnormalityDetector] RETURN : 9901 is abnormal(X).
Abnormal flw:392, lid: 9956
Lid 9671 is abnormal(X). (removed by timeout)
[AbnormalityDetector] RETURN : 9956 is abnormal(X).
Abnormal flw:871, lid: 10011
[AbnormalityDetector] RETURN : 10011 is abnormal(X).
Abnormal flw:572, lid: 10069
[AbnormalityDetector] RETURN : 10069 is abnormal(X).
Abnormal flw:248, lid: 10112
[AbnormalityDetector] RETURN : 10112 is abnormal(X).
Abnormal flw:818, lid: 10158
[AbnormalityDetector] RETURN : 10158 is abnormal(X).
Abnormal flw:557, lid: 10210
[AbnormalityDetector] RETURN : 10210 is abnormal(X).
Abnormal flw:308, lid: 10264
Abnormal flw:859, lid: 10322
[AbnormalityDetector] RETURN : 10322 is abnormal(X).
Abnormal flw:223, lid: 10383
[AbnormalityDetector] RETURN : 10383 is abnormal(X).
Abnormal flw:551, lid: 10441
[AbnormalityDetector] RETURN : 10441 is abnormal(X).
Abnormal flw:746, lid: 10497
[AbnormalityDetector] RETURN : 10497 is abnormal(X).
Abnormal flw:637, lid: 10548
Lid 10264 is abnormal(X). (removed by timeout)
[AbnormalityDetector] RETURN : 10548 is abnormal(X).
Abnormal flw:343, lid: 10592
[AbnormalityDetector] RETURN : 10592 is abnormal(X).
Abnormal flw:696, lid: 10647
[AbnormalityDetector] RETURN : 10647 is abnormal(X).
Abnormal flw:19, lid: 10697
Abnormal flw:103, lid: 10751
Abnormal Map: {10697=0}
Confirm Map: {}
Abnormal flw:45, lid: 10814
[AbnormalityDetector] RETURN : 10814 is abnormal(X).
Abnormal flw:625, lid: 10867
[AbnormalityDetector] RETURN : 10867 is abnormal(X).
Abnormal flw:691, lid: 10925
[AbnormalityDetector] RETURN : 10925 is abnormal(X).
Abnormal flw:951, lid: 10977
Lid 10697 is abnormal(X). (removed by timeout)
[AbnormalityDetector] RETURN : 10977 is abnormal(X).
Abnormal flw:474, lid: 11030
Lid 10751 is abnormal(X). (removed by timeout)
[AbnormalityDetector] RETURN : 11030 is abnormal(X).
Abnormal flw:429, lid: 11084
[AbnormalityDetector] RETURN : 11084 is abnormal(X).
Abnormal flw:649, lid: 11130
[AbnormalityDetector] RETURN : 11130 is abnormal(X).
Abnormal flw:674, lid: 11183
[AbnormalityDetector] RETURN : 11183 is abnormal(X).
Abnormal flw:869, lid: 11239
[AbnormalityDetector] RETURN : 11239 is abnormal(X).
Abnormal flw:371, lid: 11294
[AbnormalityDetector] RETURN : 11294 is abnormal(X).
Abnormal flw:363, lid: 11354
[AbnormalityDetector] RETURN : 11354 is abnormal(X).
Abnormal flw:19, lid: 11414
Abnormal flw:451, lid: 11464
[AbnormalityDetector] RETURN : 11464 is abnormal(X).
Abnormal flw:76, lid: 11511
[AbnormalityDetector] RETURN : 11511 is abnormal(X).
Abnormal flw:201, lid: 11564
Abnormal flw:314, lid: 11615
[AbnormalityDetector] RETURN : 11615 is abnormal(X).
Abnormal flw:615, lid: 11672
Lid 11414 is abnormal(X). (removed by timeout)
[AbnormalityDetector] RETURN : 11672 is abnormal(X).
Abnormal flw:421, lid: 11733
[AbnormalityDetector] RETURN : 11733 is abnormal(X).
Abnormal flw:792, lid: 11785
[AbnormalityDetector] RETURN : 11785 is abnormal(X).
Abnormal flw:943, lid: 11842
Lid 11564 is abnormal(X). (removed by timeout)
[AbnormalityDetector] RETURN : 11842 is abnormal(X).
Abnormal flw:702, lid: 11896
Abnormal flw:390, lid: 11947
[AbnormalityDetector] RETURN : 11947 is abnormal(X).
Abnormal flw:358, lid: 12004
[AbnormalityDetector] RETURN : 12004 is abnormal(X).
Abnormal flw:214, lid: 12054
[AbnormalityDetector] RETURN : 12054 is abnormal(X).
Abnormal flw:281, lid: 12108
[AbnormalityDetector] RETURN : 12108 is abnormal(X).
Abnormal flw:136, lid: 12164
Lid 11896 is abnormal(X). (removed by timeout)
[AbnormalityDetector] RETURN : 12164 is abnormal(X).
Abnormal flw:813, lid: 12218
Abnormal flw:317, lid: 12277
[AbnormalityDetector] RETURN : 12277 is abnormal(X).
Abnormal Map: {12218=0}
Confirm Map: {}
Abnormal flw:128, lid: 12330
[AbnormalityDetector] RETURN : 12330 is abnormal(X).
Abnormal flw:974, lid: 12382
[AbnormalityDetector] RETURN : 12382 is abnormal(X).
Abnormal flw:759, lid: 12437
[AbnormalityDetector] RETURN : 12437 is abnormal(X).
Abnormal flw:999, lid: 12486
Lid 12218 is abnormal(X). (removed by timeout)
[AbnormalityDetector] RETURN : 12486 is abnormal(X).
Abnormal flw:680, lid: 12540
[AbnormalityDetector] RETURN : 12540 is abnormal(X).
Abnormal flw:130, lid: 12597
[AbnormalityDetector] RETURN : 12597 is abnormal(X).
Abnormal flw:516, lid: 12652
[AbnormalityDetector] RETURN : 12652 is abnormal(X).
Abnormal flw:485, lid: 12705
[AbnormalityDetector] RETURN : 12705 is abnormal(X).
Abnormal flw:985, lid: 12756
[AbnormalityDetector] RETURN : 12756 is abnormal(X).
Abnormal flw:105, lid: 12811
Abnormal flw:786, lid: 12863
[AbnormalityDetector] RETURN : 12863 is abnormal(X).
Abnormal flw:763, lid: 12918
[AbnormalityDetector] RETURN : 12918 is abnormal(X).
Abnormal flw:566, lid: 12977
[AbnormalityDetector] RETURN : 12977 is abnormal(X).
Abnormal flw:48, lid: 13030
[AbnormalityDetector] RETURN : 13030 is abnormal(X).
Abnormal flw:289, lid: 13084
Lid 12811 is abnormal(X). (removed by timeout)
[AbnormalityDetector] RETURN : 13084 is abnormal(X).
Abnormal flw:158, lid: 13139
[AbnormalityDetector] RETURN : 13139 is abnormal(X).
Abnormal flw:817, lid: 13190
[AbnormalityDetector] RETURN : 13190 is abnormal(X).
Abnormal flw:13, lid: 13241
Abnormal flw:809, lid: 13291
Abnormal flw:381, lid: 13342
[AbnormalityDetector] RETURN : 13342 is abnormal(X).
Abnormal flw:394, lid: 13404
[AbnormalityDetector] RETURN : 13404 is abnormal(X).
Abnormal flw:115, lid: 13463
[AbnormalityDetector] RETURN : 13463 is abnormal(X).
Abnormal flw:235, lid: 13522
Lid 13241 is abnormal(X). (removed by timeout)
[AbnormalityDetector] RETURN : 13522 is abnormal(X).
Abnormal flw:405, lid: 13580
Lid 13291 is abnormal(X). (removed by timeout)
Abnormal flw:436, lid: 13621
[AbnormalityDetector] RETURN : 13621 is abnormal(X).
Abnormal flw:149, lid: 13666
[AbnormalityDetector] RETURN : 13666 is abnormal(X).
Abnormal flw:250, lid: 13715
[AbnormalityDetector] RETURN : 13715 is abnormal(X).
Abnormal flw:294, lid: 13774
[AbnormalityDetector] RETURN : 13774 is abnormal(X).
Abnormal flw:397, lid: 13838
Abnormal Map: {13580=0}
Confirm Map: {}
Lid 13580 is abnormal(X). (removed by timeout)
[AbnormalityDetector] RETURN : 13838 is abnormal(X).
Abnormal flw:643, lid: 13902
[AbnormalityDetector] RETURN : 13902 is abnormal(X).
Abnormal flw:124, lid: 13961
[AbnormalityDetector] RETURN : 13961 is abnormal(X).
Abnormal flw:643, lid: 14011
[AbnormalityDetector] RETURN : 14011 is abnormal(X).
Abnormal flw:864, lid: 14056
[AbnormalityDetector] RETURN : 14056 is abnormal(X).
Abnormal flw:178, lid: 14101
[AbnormalityDetector] RETURN : 14101 is abnormal(X).
Abnormal flw:928, lid: 14155
[AbnormalityDetector] RETURN : 14155 is abnormal(X).
Abnormal flw:79, lid: 14213
[AbnormalityDetector] RETURN : 14213 is abnormal(X).
Abnormal flw:897, lid: 14278
[AbnormalityDetector] RETURN : 14278 is abnormal(X).
Abnormal flw:510, lid: 14343
Abnormal flw:462, lid: 14395
[AbnormalityDetector] RETURN : 14395 is abnormal(X).
Abnormal flw:594, lid: 14438
[AbnormalityDetector] RETURN : 14438 is abnormal(X).
Abnormal flw:108, lid: 14482
[AbnormalityDetector] RETURN : 14482 is abnormal(X).
Abnormal flw:811, lid: 14529
Abnormal flw:541, lid: 14586
Lid 14343 is abnormal(X). (removed by timeout)
[AbnormalityDetector] RETURN : 14586 is abnormal(X).
Abnormal flw:932, lid: 14657
[AbnormalityDetector] RETURN : 14657 is abnormal(X).
Abnormal flw:618, lid: 14718
[AbnormalityDetector] RETURN : 14718 is abnormal(X).
Abnormal flw:761, lid: 14773
[AbnormalityDetector] RETURN : 14773 is abnormal(X).
Abnormal flw:981, lid: 14819
Lid 14529 is abnormal(X). (removed by timeout)
[AbnormalityDetector] RETURN : 14819 is abnormal(X).
Abnormal flw:288, lid: 14859
[AbnormalityDetector] RETURN : 14859 is abnormal(X).
Abnormal flw:537, lid: 14909
[AbnormalityDetector] RETURN : 14909 is abnormal(X).
Abnormal flw:806, lid: 14968
Abnormal flw:770, lid: 15032
[AbnormalityDetector] RETURN : 15032 is abnormal(X).
Abnormal flw:545, lid: 15094
[AbnormalityDetector] RETURN : 15094 is abnormal(X).
Abnormal flw:678, lid: 15145
[AbnormalityDetector] RETURN : 15145 is abnormal(X).
Abnormal flw:565, lid: 15194
[AbnormalityDetector] RETURN : 15194 is abnormal(X).
Abnormal flw:737, lid: 15240
Lid 14968 is abnormal(X). (removed by timeout)
[AbnormalityDetector] RETURN : 15240 is abnormal(X).
Abnormal flw:747, lid: 15289
[AbnormalityDetector] RETURN : 15289 is abnormal(X).
Abnormal flw:882, lid: 15353
[AbnormalityDetector] RETURN : 15353 is abnormal(X).
Abnormal Map: {}
Confirm Map: {}
Abnormal flw:340, lid: 15404
[AbnormalityDetector] RETURN : 15404 is abnormal(X).
Abnormal flw:514, lid: 15463

[Memory Test Result] 2017-43-15 12:43:11
	Total Average : 30,564,144 ( 29.15 MB)
Average of transport: 0.24333936885669943
Total of transport: 3763
Last lid: 15464
Number of instance: 0
Average of abnormal required time: 10008
Average of normal required time: 3159
number of wrong answer: 17
Pattern Map(first): [{"flw":3,"app":298,"lid":"15267","e_date":"2017\/04\/15 12:43:05:026","s_date":"2017\/04\/15 12:43:04:026"}, {"flw":7,"app":489,"lid":"15269","e_date":"2017\/04\/15 12:43:05:197","s_date":"2017\/04\/15 12:43:04:197"}, {"flw":2,"app":37,"lid":"15277","e_date":"2017\/04\/15 12:43:05:464","s_date":"2017\/04\/15 12:43:04:464"}, {"flw":8,"app":166,"lid":"15279","e_date":"2017\/04\/15 12:43:05:509","s_date":"2017\/04\/15 12:43:04:508"}, {"flw":8,"app":166,"lid":"15280","e_date":"2017\/04\/15 12:43:05:528","s_date":"2017\/04\/15 12:43:04:528"}, {"flw":20,"app":209,"lid":"15281","e_date":"2017\/04\/15 12:43:05:590","s_date":"2017\/04\/15 12:43:04:590"}, {"flw":1,"app":361,"lid":"15282","e_date":"2017\/04\/15 12:43:05:630","s_date":"2017\/04\/15 12:43:04:630"}, {"flw":5,"app":284,"lid":"15285","e_date":"2017\/04\/15 12:43:05:701","s_date":"2017\/04\/15 12:43:04:701"}, {"flw":2,"app":358,"lid":"15288","e_date":"2017\/04\/15 12:43:05:842","s_date":"2017\/04\/15 12:43:04:842"}, {"flw":6,"app":217,"lid":"15290","e_date":"2017\/04\/15 12:43:05:926","s_date":"2017\/04\/15 12:43:04:926"}, {"flw":17,"app":310,"lid":"15296","e_date":"2017\/04\/15 12:43:06:163","s_date":"2017\/04\/15 12:43:05:163"}, {"flw":5,"app":462,"lid":"15300","e_date":"2017\/04\/15 12:43:06:366","s_date":"2017\/04\/15 12:43:05:366"}, {"flw":5,"app":462,"lid":"15301","e_date":"2017\/04\/15 12:43:06:380","s_date":"2017\/04\/15 12:43:05:379"}, {"flw":2,"app":55,"lid":"15302","e_date":"2017\/04\/15 12:43:06:411","s_date":"2017\/04\/15 12:43:05:411"}, {"flw":1,"app":34,"lid":"15303","e_date":"2017\/04\/15 12:43:06:412","s_date":"2017\/04\/15 12:43:05:412"}, {"flw":10,"app":127,"lid":"15307","e_date":"2017\/04\/15 12:43:06:521","s_date":"2017\/04\/15 12:43:05:521"}, {"flw":18,"app":488,"lid":"15308","e_date":"2017\/04\/15 12:43:06:545","s_date":"2017\/04\/15 12:43:05:545"}, {"flw":15,"app":428,"lid":"15313","e_date":"2017\/04\/15 12:43:06:719","s_date":"2017\/04\/15 12:43:05:716"}, {"flw":6,"app":275,"lid":"15317","e_date":"2017\/04\/15 12:43:06:868","s_date":"2017\/04\/15 12:43:05:867"}, {"flw":409,"app":87,"lid":"15319","e_date":"2017\/04\/15 12:43:06:884","s_date":"2017\/04\/15 12:43:05:884"}, {"flw":6,"app":275,"lid":"15320","e_date":"2017\/04\/15 12:43:06:911","s_date":"2017\/04\/15 12:43:05:911"}, {"flw":2,"app":298,"lid":"15324","e_date":"2017\/04\/15 12:43:07:130","s_date":"2017\/04\/15 12:43:06:130"}, {"flw":7,"app":59,"lid":"15325","e_date":"2017\/04\/15 12:43:07:176","s_date":"2017\/04\/15 12:43:06:176"}, {"flw":1,"app":489,"lid":"15327","e_date":"2017\/04\/15 12:43:07:306","s_date":"2017\/04\/15 12:43:06:306"}, {"flw":3,"app":407,"lid":"15329","e_date":"2017\/04\/15 12:43:07:327","s_date":"2017\/04\/15 12:43:06:326"}, {"flw":19,"app":196,"lid":"15330","e_date":"2017\/04\/15 12:43:07:334","s_date":"2017\/04\/15 12:43:06:334"}, {"flw":504,"app":37,"lid":"15336","e_date":"2017\/04\/15 12:43:07:568","s_date":"2017\/04\/15 12:43:06:568"}, {"flw":11,"app":166,"lid":"15338","e_date":"2017\/04\/15 12:43:07:611","s_date":"2017\/04\/15 12:43:06:611"}, {"flw":11,"app":166,"lid":"15339","e_date":"2017\/04\/15 12:43:07:633","s_date":"2017\/04\/15 12:43:06:632"}, {"flw":1,"app":209,"lid":"15340","e_date":"2017\/04\/15 12:43:07:693","s_date":"2017\/04\/15 12:43:06:693"}, {"flw":1,"app":85,"lid":"15341","e_date":"2017\/04\/15 12:43:07:731","s_date":"2017\/04\/15 12:43:06:731"}, {"flw":19,"app":361,"lid":"15342","e_date":"2017\/04\/15 12:43:07:734","s_date":"2017\/04\/15 12:43:06:733"}, {"flw":1,"app":51,"lid":"15344","e_date":"2017\/04\/15 12:43:07:755","s_date":"2017\/04\/15 12:43:06:755"}, {"flw":411,"app":284,"lid":"15346","e_date":"2017\/04\/15 12:43:07:804","s_date":"2017\/04\/15 12:43:06:804"}, {"flw":3,"app":359,"lid":"15348","e_date":"2017\/04\/15 12:43:07:920","s_date":"2017\/04\/15 12:43:06:920"}, {"flw":3,"app":359,"lid":"15349","e_date":"2017\/04\/15 12:43:07:945","s_date":"2017\/04\/15 12:43:06:945"}, {"flw":403,"app":358,"lid":"15350","e_date":"2017\/04\/15 12:43:07:946","s_date":"2017\/04\/15 12:43:06:946"}, {"flw":1,"app":165,"lid":"15351","e_date":"2017\/04\/15 12:43:08:003","s_date":"2017\/04\/15 12:43:07:002"}, {"flw":11,"app":217,"lid":"15352","e_date":"2017\/04\/15 12:43:08:028","s_date":"2017\/04\/15 12:43:07:028"}, {"flw":5,"app":310,"lid":"15357","e_date":"2017\/04\/15 12:43:08:267","s_date":"2017\/04\/15 12:43:07:267"}, {"flw":1,"app":462,"lid":"15360","e_date":"2017\/04\/15 12:43:08:468","s_date":"2017\/04\/15 12:43:07:468"}, {"flw":1,"app":462,"lid":"15361","e_date":"2017\/04\/15 12:43:08:483","s_date":"2017\/04\/15 12:43:07:483"}, {"flw":3,"app":55,"lid":"15362","e_date":"2017\/04\/15 12:43:08:514","s_date":"2017\/04\/15 12:43:07:514"}, {"flw":2,"app":34,"lid":"15363","e_date":"2017\/04\/15 12:43:08:514","s_date":"2017\/04\/15 12:43:07:514"}, {"flw":704,"app":127,"lid":"15365","e_date":"2017\/04\/15 12:43:08:624","s_date":"2017\/04\/15 12:43:07:624"}, {"flw":403,"app":488,"lid":"15366","e_date":"2017\/04\/15 12:43:08:647","s_date":"2017\/04\/15 12:43:07:647"}, {"flw":5,"app":481,"lid":"15367","e_date":"2017\/04\/15 12:43:08:687","s_date":"2017\/04\/15 12:43:07:687"}, {"flw":1,"app":428,"lid":"15370","e_date":"2017\/04\/15 12:43:08:823","s_date":"2017\/04\/15 12:43:07:823"}, {"flw":1,"app":275,"lid":"15374","e_date":"2017\/04\/15 12:43:08:971","s_date":"2017\/04\/15 12:43:07:971"}, {"flw":1,"app":87,"lid":"15375","e_date":"2017\/04\/15 12:43:08:986","s_date":"2017\/04\/15 12:43:07:986"}, {"flw":1,"app":275,"lid":"15376","e_date":"2017\/04\/15 12:43:09:014","s_date":"2017\/04\/15 12:43:08:014"}, {"flw":5,"app":388,"lid":"15379","e_date":"2017\/04\/15 12:43:09:202","s_date":"2017\/04\/15 12:43:08:202"}, {"flw":9,"app":298,"lid":"15380","e_date":"2017\/04\/15 12:43:09:233","s_date":"2017\/04\/15 12:43:08:233"}, {"flw":504,"app":59,"lid":"15381","e_date":"2017\/04\/15 12:43:09:280","s_date":"2017\/04\/15 12:43:08:280"}, {"flw":2,"app":102,"lid":"15384","e_date":"2017\/04\/15 12:43:09:409","s_date":"2017\/04\/15 12:43:08:409"}, {"flw":12,"app":489,"lid":"15383","e_date":"2017\/04\/15 12:43:09:409","s_date":"2017\/04\/15 12:43:08:409"}, {"flw":4,"app":407,"lid":"15385","e_date":"2017\/04\/15 12:43:09:429","s_date":"2017\/04\/15 12:43:08:429"}, {"flw":2,"app":196,"lid":"15386","e_date":"2017\/04\/15 12:43:09:436","s_date":"2017\/04\/15 12:43:08:436"}, {"flw":2,"app":214,"lid":"15388","e_date":"2017\/04\/15 12:43:09:599","s_date":"2017\/04\/15 12:43:08:599"}, {"flw":813,"app":37,"lid":"15389","e_date":"2017\/04\/15 12:43:09:672","s_date":"2017\/04\/15 12:43:08:672"}, {"flw":10,"app":166,"lid":"15391","e_date":"2017\/04\/15 12:43:09:715","s_date":"2017\/04\/15 12:43:08:715"}, {"flw":10,"app":166,"lid":"15392","e_date":"2017\/04\/15 12:43:09:736","s_date":"2017\/04\/15 12:43:08:735"}, {"flw":3,"app":209,"lid":"15393","e_date":"2017\/04\/15 12:43:09:795","s_date":"2017\/04\/15 12:43:08:795"}, {"flw":6,"app":85,"lid":"15394","e_date":"2017\/04\/15 12:43:09:835","s_date":"2017\/04\/15 12:43:08:835"}, {"flw":6,"app":361,"lid":"15395","e_date":"2017\/04\/15 12:43:09:837","s_date":"2017\/04\/15 12:43:08:837"}, {"flw":3,"app":51,"lid":"15396","e_date":"2017\/04\/15 12:43:09:858","s_date":"2017\/04\/15 12:43:08:858"}, {"flw":3,"app":251,"lid":"15397","e_date":"2017\/04\/15 12:43:09:862","s_date":"2017\/04\/15 12:43:08:862"}, {"flw":2,"app":284,"lid":"15398","e_date":"2017\/04\/15 12:43:09:907","s_date":"2017\/04\/15 12:43:08:907"}, {"flw":2,"app":359,"lid":"15399","e_date":"2017\/04\/15 12:43:10:023","s_date":"2017\/04\/15 12:43:09:023"}, {"flw":2,"app":359,"lid":"15400","e_date":"2017\/04\/15 12:43:10:047","s_date":"2017\/04\/15 12:43:09:047"}, {"flw":3,"app":358,"lid":"15401","e_date":"2017\/04\/15 12:43:10:049","s_date":"2017\/04\/15 12:43:09:049"}, {"flw":18,"app":165,"lid":"15402","e_date":"2017\/04\/15 12:43:10:106","s_date":"2017\/04\/15 12:43:09:106"}, {"flw":701,"app":100,"lid":"15403","e_date":"2017\/04\/15 12:43:10:115","s_date":"2017\/04\/15 12:43:09:115"}, {"flw":8,"app":217,"lid":"15405","e_date":"2017\/04\/15 12:43:10:132","s_date":"2017\/04\/15 12:43:09:132"}, {"flw":909,"app":472,"lid":"15409","e_date":"2017\/04\/15 12:43:10:347","s_date":"2017\/04\/15 12:43:09:347"}, {"flw":3,"app":310,"lid":"15410","e_date":"2017\/04\/15 12:43:10:370","s_date":"2017\/04\/15 12:43:09:370"}, {"flw":5,"app":443,"lid":"15411","e_date":"2017\/04\/15 12:43:10:450","s_date":"2017\/04\/15 12:43:09:450"}, {"flw":9,"app":125,"lid":"15412","e_date":"2017\/04\/15 12:43:10:454","s_date":"2017\/04\/15 12:43:09:454"}, {"flw":3,"app":315,"lid":"15413","e_date":"2017\/04\/15 12:43:10:467","s_date":"2017\/04\/15 12:43:09:467"}, {"flw":3,"app":29,"lid":"15414","e_date":"2017\/04\/15 12:43:10:490","s_date":"2017\/04\/15 12:43:09:490"}, {"flw":2,"app":462,"lid":"15415","e_date":"2017\/04\/15 12:43:10:571","s_date":"2017\/04\/15 12:43:09:571"}, {"flw":2,"app":462,"lid":"15416","e_date":"2017\/04\/15 12:43:10:588","s_date":"2017\/04\/15 12:43:09:587"}, {"flw":10,"app":34,"lid":"15418","e_date":"2017\/04\/15 12:43:10:621","s_date":"2017\/04\/15 12:43:09:621"}, {"flw":201,"app":55,"lid":"15417","e_date":"2017\/04\/15 12:43:10:621","s_date":"2017\/04\/15 12:43:09:620"}, {"flw":1,"app":127,"lid":"15419","e_date":"2017\/04\/15 12:43:10:727","s_date":"2017\/04\/15 12:43:09:727"}, {"flw":3,"app":488,"lid":"15420","e_date":"2017\/04\/15 12:43:10:751","s_date":"2017\/04\/15 12:43:09:751"}, {"flw":306,"app":481,"lid":"15421","e_date":"2017\/04\/15 12:43:10:790","s_date":"2017\/04\/15 12:43:09:789"}, {"flw":9,"app":345,"lid":"15422","e_date":"2017\/04\/15 12:43:10:844","s_date":"2017\/04\/15 12:43:09:844"}, {"flw":8,"app":428,"lid":"15423","e_date":"2017\/04\/15 12:43:10:927","s_date":"2017\/04\/15 12:43:09:926"}, {"flw":3,"app":93,"lid":"15425","e_date":"2017\/04\/15 12:43:10:953","s_date":"2017\/04\/15 12:43:09:952"}, {"flw":2,"app":275,"lid":"15428","e_date":"2017\/04\/15 12:43:11:074","s_date":"2017\/04\/15 12:43:10:074"}, {"flw":2,"app":87,"lid":"15429","e_date":"2017\/04\/15 12:43:11:089","s_date":"2017\/04\/15 12:43:10:089"}, {"flw":2,"app":275,"lid":"15430","e_date":"2017\/04\/15 12:43:11:116","s_date":"2017\/04\/15 12:43:10:116"}, {"flw":813,"app":39,"lid":"15431","e_date":"2017\/04\/15 12:43:11:212","s_date":"2017\/04\/15 12:43:10:212"}, {"flw":3,"app":388,"lid":"15433","e_date":"2017\/04\/15 12:43:11:306","s_date":"2017\/04\/15 12:43:10:306"}, {"flw":16,"app":298,"lid":"15434","e_date":"2017\/04\/15 12:43:11:335","s_date":"2017\/04\/15 12:43:10:335"}]
Confirm Map: {}
last lid: 15464
