SLF4J: Failed to load class "org.slf4j.impl.StaticLoggerBinder".
SLF4J: Defaulting to no-operation (NOP) logger implementation
SLF4J: See http://www.slf4j.org/codes.html#StaticLoggerBinder for further details.
[AbnormalityDetector] RETURN : 5943 is abnormal(X).
정상을 비정상이라고 판단. lid: 5943
[AbnormalityDetector] RETURN : 5945 is abnormal(X).
정상을 비정상이라고 판단. lid: 5945
[AbnormalityDetector] RETURN : 5946 is abnormal(X).
정상을 비정상이라고 판단. lid: 5946
[AbnormalityDetector] RETURN : 5947 is abnormal(X).
정상을 비정상이라고 판단. lid: 5947
[AbnormalityDetector] RETURN : 5948 is abnormal(X).
정상을 비정상이라고 판단. lid: 5948
[AbnormalityDetector] RETURN : 5949 is abnormal(X).
정상을 비정상이라고 판단. lid: 5949
[AbnormalityDetector] RETURN : 5950 is abnormal(X).
정상을 비정상이라고 판단. lid: 5950
[AbnormalityDetector] RETURN : 5951 is abnormal(X).
정상을 비정상이라고 판단. lid: 5951
[AbnormalityDetector] RETURN : 5952 is abnormal(X).
정상을 비정상이라고 판단. lid: 5952
[AbnormalityDetector] RETURN : 5953 is abnormal(X).
정상을 비정상이라고 판단. lid: 5953
[AbnormalityDetector] RETURN : 5954 is abnormal(X).
정상을 비정상이라고 판단. lid: 5954
