SLF4J: Failed to load class "org.slf4j.impl.StaticLoggerBinder".
SLF4J: Defaulting to no-operation (NOP) logger implementation
SLF4J: See http://www.slf4j.org/codes.html#StaticLoggerBinder for further details.
java.io.FileNotFoundException: appInfo_F1000_A500_S0_D0_I10a.txt (No such file or directory)
	at java.io.FileInputStream.open0(Native Method)
	at java.io.FileInputStream.open(FileInputStream.java:195)
	at java.io.FileInputStream.<init>(FileInputStream.java:138)
	at java.io.FileInputStream.<init>(FileInputStream.java:93)
	at java.io.FileReader.<init>(FileReader.java:58)
	at org.apl.netbig.whiplash.AbnormalityDetector.realTimeAbnormalityDetector(AbnormalityDetector.java:254)
	at org.apl.netbig.whiplash.AbnormalityDetector.run(AbnormalityDetector.java:320)
	at java.lang.Thread.run(Thread.java:745)
[AbnormalityDetector] RETURN : 15678 is abnormal(X).
정상을 비정상이라고 판단. lid: 15678
[AbnormalityDetector] RETURN : 15679 is abnormal(X).
정상을 비정상이라고 판단. lid: 15679
[AbnormalityDetector] RETURN : 15680 is abnormal(X).
정상을 비정상이라고 판단. lid: 15680
[AbnormalityDetector] RETURN : 15681 is abnormal(X).
정상을 비정상이라고 판단. lid: 15681
[AbnormalityDetector] RETURN : 15682 is abnormal(X).
정상을 비정상이라고 판단. lid: 15682
[AbnormalityDetector] RETURN : 15683 is abnormal(X).
정상을 비정상이라고 판단. lid: 15683
[AbnormalityDetector] RETURN : 15684 is abnormal(X).
정상을 비정상이라고 판단. lid: 15684
[AbnormalityDetector] RETURN : 15685 is abnormal(X).
정상을 비정상이라고 판단. lid: 15685
[AbnormalityDetector] RETURN : 15686 is abnormal(X).
정상을 비정상이라고 판단. lid: 15686
[AbnormalityDetector] RETURN : 15687 is abnormal(X).
정상을 비정상이라고 판단. lid: 15687
[AbnormalityDetector] RETURN : 15688 is abnormal(X).
정상을 비정상이라고 판단. lid: 15688
[AbnormalityDetector] RETURN : 15689 is abnormal(X).
정상을 비정상이라고 판단. lid: 15689
[AbnormalityDetector] RETURN : 15690 is abnormal(X).
정상을 비정상이라고 판단. lid: 15690
[AbnormalityDetector] RETURN : 15691 is abnormal(X).
정상을 비정상이라고 판단. lid: 15691
[AbnormalityDetector] RETURN : 15692 is abnormal(X).
정상을 비정상이라고 판단. lid: 15692
[AbnormalityDetector] RETURN : 15693 is abnormal(X).
정상을 비정상이라고 판단. lid: 15693
[AbnormalityDetector] RETURN : 15694 is abnormal(X).
정상을 비정상이라고 판단. lid: 15694
[AbnormalityDetector] RETURN : 15695 is abnormal(X).
정상을 비정상이라고 판단. lid: 15695
[AbnormalityDetector] RETURN : 15696 is abnormal(X).
정상을 비정상이라고 판단. lid: 15696
java.io.FileNotFoundException: appInfo_F1000_A500_S0_D0_I10a.txt (No such file or directory)
	at java.io.FileInputStream.open0(Native Method)
	at java.io.FileInputStream.open(FileInputStream.java:195)
	at java.io.FileInputStream.<init>(FileInputStream.java:138)
	at java.io.FileInputStream.<init>(FileInputStream.java:93)
	at java.io.FileReader.<init>(FileReader.java:58)
	at org.apl.netbig.platformx.FlowSim.ReadInfoFile(FlowSim.java:51)
	at org.apl.netbig.platformx.FlowSim.run(FlowSim.java:75)
	at java.lang.Thread.run(Thread.java:745)
Exception in thread "Thread-1" java.lang.IllegalArgumentException: bound must be positive
	at java.util.Random.nextInt(Random.java:388)
	at org.apl.netbig.platformx.FlowSim.run(FlowSim.java:81)
	at java.lang.Thread.run(Thread.java:745)
