SLF4J: Failed to load class "org.slf4j.impl.StaticLoggerBinder".
SLF4J: Defaulting to no-operation (NOP) logger implementation
SLF4J: See http://www.slf4j.org/codes.html#StaticLoggerBinder for further details.
Abnormal flw:966, lid: 1
[AbnormalityDetector] RETURN : 1 is abnormal(X).
Abnormal flw:601, lid: 25
Abnormal flw:484, lid: 71
Abnormal flw:345, lid: 133
Abnormal flw:291, lid: 215
[AbnormalityDetector] RETURN : 215 is abnormal(X).
Abnormal flw:555, lid: 293
Abnormal flw:534, lid: 363
Lid 25 is abnormal(X). (removed by timeout)
Abnormal flw:808, lid: 424
Lid 71 is abnormal(X). (removed by timeout)
[AbnormalityDetector] RETURN : 424 is abnormal(X).
Abnormal flw:298, lid: 475
Lid 133 is abnormal(X). (removed by timeout)
Abnormal flw:888, lid: 518
Abnormal flw:442, lid: 557
Lid 293 is abnormal(X). (removed by timeout)
Abnormal flw:962, lid: 605
Lid 363 is abnormal(X). (removed by timeout)
Abnormal flw:665, lid: 659
Abnormal flw:983, lid: 714
Lid 475 is abnormal(X). (removed by timeout)
Abnormal flw:225, lid: 782
Lid 518 is abnormal(X). (removed by timeout)
Abnormal flw:262, lid: 848
Lid 557 is abnormal(X). (removed by timeout)
Abnormal flw:361, lid: 910
Lid 605 is abnormal(X). (removed by timeout)
Abnormal flw:790, lid: 974
Lid 659 is abnormal(X). (removed by timeout)
Abnormal flw:531, lid: 1023
Lid 714 is abnormal(X). (removed by timeout)
Abnormal flw:280, lid: 1068
Lid 782 is abnormal(X). (removed by timeout)
[AbnormalityDetector] RETURN : 1068 is abnormal(X).
Abnormal flw:943, lid: 1114
Lid 848 is abnormal(X). (removed by timeout)
Abnormal flw:587, lid: 1156
Lid 910 is abnormal(X). (removed by timeout)
Abnormal flw:539, lid: 1211
Lid 974 is abnormal(X). (removed by timeout)
Abnormal flw:755, lid: 1274
Lid 1023 is abnormal(X). (removed by timeout)
Abnormal flw:962, lid: 1346
Abnormal flw:626, lid: 1418
Lid 1114 is abnormal(X). (removed by timeout)
Abnormal flw:199, lid: 1473
Lid 1156 is abnormal(X). (removed by timeout)
Abnormal flw:921, lid: 1525
Lid 1211 is abnormal(X). (removed by timeout)
Abnormal flw:600, lid: 1572
Lid 1274 is abnormal(X). (removed by timeout)
Abnormal flw:289, lid: 1620
Lid 1346 is abnormal(X). (removed by timeout)
[AbnormalityDetector] RETURN : 1620 is abnormal(X).
Abnormal flw:166, lid: 1673
Lid 1418 is abnormal(X). (removed by timeout)
Abnormal flw:934, lid: 1725
Lid 1473 is abnormal(X). (removed by timeout)
Abnormal flw:892, lid: 1775
Lid 1525 is abnormal(X). (removed by timeout)
[AbnormalityDetector] RETURN : 1775 is abnormal(X).
Abnormal flw:631, lid: 1835
Lid 1572 is abnormal(X). (removed by timeout)
Abnormal flw:62, lid: 1902
Abnormal flw:965, lid: 1967
Lid 1673 is abnormal(X). (removed by timeout)
Abnormal flw:928, lid: 2026
Lid 1725 is abnormal(X). (removed by timeout)
Abnormal flw:275, lid: 2078
Abnormal flw:281, lid: 2129
Lid 1835 is abnormal(X). (removed by timeout)
Abnormal flw:714, lid: 2178
Lid 1902 is abnormal(X). (removed by timeout)
Abnormal flw:859, lid: 2234
Lid 1967 is abnormal(X). (removed by timeout)
Abnormal flw:664, lid: 2287
Lid 2026 is abnormal(X). (removed by timeout)
Abnormal flw:867, lid: 2336
Lid 2078 is abnormal(X). (removed by timeout)
Abnormal flw:839, lid: 2398
Lid 2129 is abnormal(X). (removed by timeout)
Abnormal flw:935, lid: 2460
Lid 2178 is abnormal(X). (removed by timeout)
Abnormal flw:790, lid: 2525
Lid 2234 is abnormal(X). (removed by timeout)
Abnormal flw:947, lid: 2588
Lid 2287 is abnormal(X). (removed by timeout)
[AbnormalityDetector] RETURN : 2588 is abnormal(X).
Abnormal flw:706, lid: 2635
Lid 2336 is abnormal(X). (removed by timeout)
Abnormal flw:489, lid: 2685
Lid 2398 is abnormal(X). (removed by timeout)
Abnormal flw:980, lid: 2736
Lid 2460 is abnormal(X). (removed by timeout)
[AbnormalityDetector] RETURN : 2736 is abnormal(X).
Abnormal flw:251, lid: 2787
Lid 2525 is abnormal(X). (removed by timeout)
[AbnormalityDetector] RETURN : 2787 is abnormal(X).
Abnormal flw:219, lid: 2844
Abnormal flw:406, lid: 2896
Lid 2635 is abnormal(X). (removed by timeout)
Abnormal flw:625, lid: 2954
Lid 2685 is abnormal(X). (removed by timeout)
Abnormal flw:166, lid: 3016
Abnormal flw:364, lid: 3082
Abnormal flw:959, lid: 3144
Lid 2844 is abnormal(X). (removed by timeout)
Abnormal flw:907, lid: 3193
Lid 2896 is abnormal(X). (removed by timeout)
Abnormal flw:374, lid: 3243
Lid 2954 is abnormal(X). (removed by timeout)
[AbnormalityDetector] RETURN : 3243 is abnormal(X).
Abnormal flw:481, lid: 3286
Lid 3016 is abnormal(X). (removed by timeout)
[AbnormalityDetector] RETURN : 3286 is abnormal(X).
Abnormal flw:585, lid: 3338
Lid 3082 is abnormal(X). (removed by timeout)
Abnormal flw:6, lid: 3395
Lid 3144 is abnormal(X). (removed by timeout)
Abnormal flw:734, lid: 3456
Lid 3193 is abnormal(X). (removed by timeout)
Abnormal flw:102, lid: 3523
Abnormal flw:859, lid: 3580
Abnormal flw:30, lid: 3638
Lid 3338 is abnormal(X). (removed by timeout)
Abnormal flw:810, lid: 3692
Lid 3395 is abnormal(X). (removed by timeout)
Abnormal flw:488, lid: 3741
Lid 3456 is abnormal(X). (removed by timeout)
Abnormal flw:501, lid: 3794
Lid 3523 is abnormal(X). (removed by timeout)
Abnormal flw:784, lid: 3845
Lid 3580 is abnormal(X). (removed by timeout)
Abnormal flw:202, lid: 3895
Lid 3638 is abnormal(X). (removed by timeout)
Abnormal flw:76, lid: 3954
Lid 3692 is abnormal(X). (removed by timeout)
Abnormal flw:785, lid: 4018
Lid 3741 is abnormal(X). (removed by timeout)
Abnormal flw:82, lid: 4078
Lid 3794 is abnormal(X). (removed by timeout)
Abnormal flw:717, lid: 4137
Lid 3845 is abnormal(X). (removed by timeout)
Abnormal flw:3, lid: 4193
Lid 3895 is abnormal(X). (removed by timeout)
Abnormal flw:209, lid: 4245
Lid 3954 is abnormal(X). (removed by timeout)
Abnormal flw:315, lid: 4299
Lid 4018 is abnormal(X). (removed by timeout)
Abnormal flw:999, lid: 4353
Lid 4078 is abnormal(X). (removed by timeout)
Abnormal flw:127, lid: 4405
Lid 4137 is abnormal(X). (removed by timeout)
Abnormal flw:365, lid: 4456
Lid 4193 is abnormal(X). (removed by timeout)
[AbnormalityDetector] RETURN : 4456 is abnormal(X).
Abnormal flw:29, lid: 4517
Lid 4245 is abnormal(X). (removed by timeout)
Abnormal flw:641, lid: 4577
Lid 4299 is abnormal(X). (removed by timeout)
Abnormal flw:551, lid: 4635
Lid 4353 is abnormal(X). (removed by timeout)
Abnormal flw:934, lid: 4693
Lid 4405 is abnormal(X). (removed by timeout)
Abnormal flw:271, lid: 4744
Abnormal flw:282, lid: 4796
Lid 4517 is abnormal(X). (removed by timeout)
[AbnormalityDetector] RETURN : 4796 is abnormal(X).
Abnormal flw:358, lid: 4849
Lid 4577 is abnormal(X). (removed by timeout)
Abnormal flw:172, lid: 4907
Lid 4635 is abnormal(X). (removed by timeout)
Abnormal flw:519, lid: 4962
Lid 4693 is abnormal(X). (removed by timeout)
Abnormal flw:559, lid: 5020
Lid 4744 is abnormal(X). (removed by timeout)
Abnormal flw:938, lid: 5075
Abnormal flw:537, lid: 5132
Lid 4849 is abnormal(X). (removed by timeout)
[AbnormalityDetector] RETURN : 5132 is abnormal(X).
Abnormal flw:749, lid: 5189
Lid 4907 is abnormal(X). (removed by timeout)
[AbnormalityDetector] RETURN : 5189 is abnormal(X).
Abnormal flw:972, lid: 5246
Lid 4962 is abnormal(X). (removed by timeout)
Abnormal flw:729, lid: 5305
Lid 5020 is abnormal(X). (removed by timeout)
Abnormal flw:696, lid: 5359
Lid 5075 is abnormal(X). (removed by timeout)
Abnormal flw:178, lid: 5417
Abnormal flw:775, lid: 5468
Abnormal flw:93, lid: 5517
Lid 5246 is abnormal(X). (removed by timeout)
Abnormal flw:93, lid: 5570
Lid 5305 is abnormal(X). (removed by timeout)
Abnormal flw:679, lid: 5625
Lid 5359 is abnormal(X). (removed by timeout)
Abnormal flw:837, lid: 5688
Lid 5417 is abnormal(X). (removed by timeout)
Abnormal flw:600, lid: 5754
Lid 5468 is abnormal(X). (removed by timeout)
Abnormal flw:579, lid: 5810
Lid 5517 is abnormal(X). (removed by timeout)
[AbnormalityDetector] RETURN : 5810 is abnormal(X).
Abnormal flw:962, lid: 5865
Lid 5570 is abnormal(X). (removed by timeout)
Abnormal flw:227, lid: 5912
Lid 5625 is abnormal(X). (removed by timeout)
Abnormal flw:867, lid: 5961
Lid 5688 is abnormal(X). (removed by timeout)
Abnormal flw:940, lid: 6018
Lid 5754 is abnormal(X). (removed by timeout)
Abnormal flw:820, lid: 6070
Abnormal flw:419, lid: 6130
Lid 5865 is abnormal(X). (removed by timeout)
Abnormal flw:720, lid: 6189
Lid 5912 is abnormal(X). (removed by timeout)
Abnormal flw:600, lid: 6246
Lid 5961 is abnormal(X). (removed by timeout)
Abnormal flw:942, lid: 6301
Lid 6018 is abnormal(X). (removed by timeout)
Abnormal flw:169, lid: 6362
Lid 6070 is abnormal(X). (removed by timeout)
Abnormal flw:239, lid: 6416
Lid 6130 is abnormal(X). (removed by timeout)
Abnormal flw:349, lid: 6471
Lid 6189 is abnormal(X). (removed by timeout)
[AbnormalityDetector] RETURN : 6471 is abnormal(X).
Abnormal flw:457, lid: 6526
Lid 6246 is abnormal(X). (removed by timeout)
[AbnormalityDetector] RETURN : 6526 is abnormal(X).
Abnormal flw:609, lid: 6572
Lid 6301 is abnormal(X). (removed by timeout)
Abnormal flw:981, lid: 6628
Lid 6362 is abnormal(X). (removed by timeout)
Abnormal flw:702, lid: 6689
Lid 6416 is abnormal(X). (removed by timeout)
Abnormal flw:84, lid: 6753
Abnormal flw:800, lid: 6812
Abnormal flw:25, lid: 6864
Lid 6572 is abnormal(X). (removed by timeout)
Abnormal flw:956, lid: 6922
Lid 6628 is abnormal(X). (removed by timeout)
Abnormal flw:216, lid: 6974
Lid 6689 is abnormal(X). (removed by timeout)
[AbnormalityDetector] RETURN : 6974 is abnormal(X).
Abnormal flw:979, lid: 7030
Lid 6753 is abnormal(X). (removed by timeout)
Abnormal flw:641, lid: 7086
Lid 6812 is abnormal(X). (removed by timeout)
Abnormal flw:158, lid: 7131
Lid 6864 is abnormal(X). (removed by timeout)
Abnormal flw:240, lid: 7186
Lid 6922 is abnormal(X). (removed by timeout)
Abnormal flw:71, lid: 7244
Abnormal flw:929, lid: 7310
Lid 7030 is abnormal(X). (removed by timeout)
Abnormal flw:430, lid: 7372
Lid 7086 is abnormal(X). (removed by timeout)
Abnormal flw:956, lid: 7425
Lid 7131 is abnormal(X). (removed by timeout)
Abnormal flw:926, lid: 7477
Lid 7186 is abnormal(X). (removed by timeout)
Abnormal flw:891, lid: 7522
Lid 7244 is abnormal(X). (removed by timeout)
Abnormal flw:154, lid: 7573
Lid 7310 is abnormal(X). (removed by timeout)
Abnormal flw:133, lid: 7631
Lid 7372 is abnormal(X). (removed by timeout)
Abnormal flw:74, lid: 7689
Lid 7425 is abnormal(X). (removed by timeout)
Abnormal flw:314, lid: 7751
Lid 7477 is abnormal(X). (removed by timeout)
Abnormal flw:156, lid: 7810
Lid 7522 is abnormal(X). (removed by timeout)
Abnormal flw:187, lid: 7867
Lid 7573 is abnormal(X). (removed by timeout)
Abnormal flw:978, lid: 7922
Lid 7631 is abnormal(X). (removed by timeout)
Abnormal flw:80, lid: 7970
Lid 7689 is abnormal(X). (removed by timeout)
Abnormal flw:22, lid: 8021
Lid 7751 is abnormal(X). (removed by timeout)
Abnormal flw:937, lid: 8075
Lid 7810 is abnormal(X). (removed by timeout)
Abnormal flw:903, lid: 8129
Lid 7867 is abnormal(X). (removed by timeout)
Abnormal flw:664, lid: 8193
Lid 7922 is abnormal(X). (removed by timeout)
Abnormal flw:221, lid: 8255
Lid 7970 is abnormal(X). (removed by timeout)
[AbnormalityDetector] RETURN : 8255 is abnormal(X).
Abnormal flw:666, lid: 8315
Lid 8021 is abnormal(X). (removed by timeout)
Abnormal flw:689, lid: 8373
Lid 8075 is abnormal(X). (removed by timeout)
Abnormal flw:774, lid: 8424
Lid 8129 is abnormal(X). (removed by timeout)
Abnormal flw:113, lid: 8474
Lid 8193 is abnormal(X). (removed by timeout)
Abnormal flw:773, lid: 8525
[AbnormalityDetector] RETURN : 8525 is abnormal(X).
Abnormal flw:91, lid: 8581
Lid 8315 is abnormal(X). (removed by timeout)
Abnormal flw:146, lid: 8635
Lid 8373 is abnormal(X). (removed by timeout)
Abnormal flw:910, lid: 8692
Lid 8424 is abnormal(X). (removed by timeout)
Abnormal flw:268, lid: 8749
Lid 8474 is abnormal(X). (removed by timeout)
[AbnormalityDetector] RETURN : 8749 is abnormal(X).
Abnormal flw:511, lid: 8805
Abnormal flw:299, lid: 8864
Lid 8581 is abnormal(X). (removed by timeout)
Abnormal flw:970, lid: 8924
Lid 8635 is abnormal(X). (removed by timeout)
Abnormal flw:843, lid: 8982
Lid 8692 is abnormal(X). (removed by timeout)
Abnormal flw:383, lid: 9032
Abnormal flw:256, lid: 9088
Lid 8805 is abnormal(X). (removed by timeout)
Abnormal flw:139, lid: 9142
Lid 8864 is abnormal(X). (removed by timeout)
Abnormal flw:571, lid: 9195
Lid 8924 is abnormal(X). (removed by timeout)
Abnormal flw:1, lid: 9253
Lid 8982 is abnormal(X). (removed by timeout)
Abnormal flw:50, lid: 9309
Lid 9032 is abnormal(X). (removed by timeout)
Abnormal flw:428, lid: 9366
Lid 9088 is abnormal(X). (removed by timeout)
[AbnormalityDetector] RETURN : 9366 is abnormal(X).
Abnormal flw:846, lid: 9424
Lid 9142 is abnormal(X). (removed by timeout)
Abnormal flw:534, lid: 9484
Lid 9195 is abnormal(X). (removed by timeout)
Abnormal flw:365, lid: 9535
Lid 9253 is abnormal(X). (removed by timeout)
[AbnormalityDetector] RETURN : 9535 is abnormal(X).
Abnormal flw:404, lid: 9587
Lid 9309 is abnormal(X). (removed by timeout)
Abnormal flw:181, lid: 9638
Abnormal flw:384, lid: 9695
Lid 9424 is abnormal(X). (removed by timeout)
Abnormal flw:605, lid: 9752
Lid 9484 is abnormal(X). (removed by timeout)
Abnormal flw:820, lid: 9810
Abnormal flw:364, lid: 9868
Lid 9587 is abnormal(X). (removed by timeout)
Abnormal flw:630, lid: 9924
Lid 9638 is abnormal(X). (removed by timeout)
Abnormal flw:701, lid: 9984
Lid 9695 is abnormal(X). (removed by timeout)
Abnormal flw:451, lid: 10041
Lid 9752 is abnormal(X). (removed by timeout)
Abnormal flw:439, lid: 10095
Lid 9810 is abnormal(X). (removed by timeout)
Abnormal flw:173, lid: 10145
Lid 9868 is abnormal(X). (removed by timeout)
Abnormal flw:323, lid: 10200
Lid 9924 is abnormal(X). (removed by timeout)
Abnormal flw:392, lid: 10255
Lid 9984 is abnormal(X). (removed by timeout)
[AbnormalityDetector] RETURN : 10255 is abnormal(X).
Abnormal flw:871, lid: 10316
Lid 10041 is abnormal(X). (removed by timeout)
Abnormal flw:572, lid: 10371
Lid 10095 is abnormal(X). (removed by timeout)
Abnormal flw:248, lid: 10419
Lid 10145 is abnormal(X). (removed by timeout)
Abnormal flw:818, lid: 10472
Lid 10200 is abnormal(X). (removed by timeout)
Abnormal flw:557, lid: 10528
Abnormal flw:308, lid: 10592
Lid 10316 is abnormal(X). (removed by timeout)
[AbnormalityDetector] RETURN : 10592 is abnormal(X).
Abnormal flw:859, lid: 10655
Lid 10371 is abnormal(X). (removed by timeout)
Abnormal flw:223, lid: 10714
Lid 10419 is abnormal(X). (removed by timeout)
Abnormal flw:551, lid: 10763
Lid 10472 is abnormal(X). (removed by timeout)
Abnormal flw:746, lid: 10807
Lid 10528 is abnormal(X). (removed by timeout)
Abnormal flw:637, lid: 10860
Abnormal flw:343, lid: 10914
Lid 10655 is abnormal(X). (removed by timeout)
Abnormal flw:696, lid: 10977
Lid 10714 is abnormal(X). (removed by timeout)
Abnormal flw:19, lid: 11040
Lid 10763 is abnormal(X). (removed by timeout)
[AbnormalityDetector] RETURN : 11040 is abnormal(X).
Abnormal flw:103, lid: 11095
Lid 10807 is abnormal(X). (removed by timeout)
Abnormal flw:45, lid: 11151
Lid 10860 is abnormal(X). (removed by timeout)
Abnormal flw:625, lid: 11201
Lid 10914 is abnormal(X). (removed by timeout)
Abnormal flw:691, lid: 11255
Lid 10977 is abnormal(X). (removed by timeout)
Abnormal flw:951, lid: 11314
Abnormal flw:474, lid: 11366
Lid 11095 is abnormal(X). (removed by timeout)
Abnormal flw:429, lid: 11421
Lid 11151 is abnormal(X). (removed by timeout)
Abnormal flw:649, lid: 11477
Lid 11201 is abnormal(X). (removed by timeout)
[AbnormalityDetector] RETURN : 11477 is abnormal(X).
Abnormal flw:674, lid: 11533
Lid 11255 is abnormal(X). (removed by timeout)
Abnormal flw:869, lid: 11594
Lid 11314 is abnormal(X). (removed by timeout)
Abnormal flw:371, lid: 11655
Lid 11366 is abnormal(X). (removed by timeout)
Abnormal flw:363, lid: 11714
Lid 11421 is abnormal(X). (removed by timeout)
Abnormal flw:19, lid: 11770
[AbnormalityDetector] RETURN : 11770 is abnormal(X).
Abnormal flw:451, lid: 11821
Lid 11533 is abnormal(X). (removed by timeout)
Abnormal flw:76, lid: 11867
Lid 11594 is abnormal(X). (removed by timeout)
Abnormal flw:201, lid: 11917
Lid 11655 is abnormal(X). (removed by timeout)
Abnormal flw:314, lid: 11972
Lid 11714 is abnormal(X). (removed by timeout)
Abnormal flw:615, lid: 12034
Abnormal flw:421, lid: 12100
Lid 11821 is abnormal(X). (removed by timeout)
Abnormal flw:792, lid: 12158
Lid 11867 is abnormal(X). (removed by timeout)
Abnormal flw:943, lid: 12212
Lid 11917 is abnormal(X). (removed by timeout)
Abnormal flw:702, lid: 12263
Lid 11972 is abnormal(X). (removed by timeout)
Abnormal flw:390, lid: 12316
Lid 12034 is abnormal(X). (removed by timeout)
Abnormal flw:358, lid: 12373
Lid 12100 is abnormal(X). (removed by timeout)
Abnormal flw:214, lid: 12424
Lid 12158 is abnormal(X). (removed by timeout)
Abnormal flw:281, lid: 12476
Lid 12212 is abnormal(X). (removed by timeout)
Abnormal flw:136, lid: 12533
Lid 12263 is abnormal(X). (removed by timeout)
Abnormal flw:813, lid: 12590
Lid 12316 is abnormal(X). (removed by timeout)
[AbnormalityDetector] RETURN : 12590 is abnormal(X).
Abnormal flw:317, lid: 12653
Lid 12373 is abnormal(X). (removed by timeout)
[AbnormalityDetector] RETURN : 12653 is abnormal(X).
Abnormal flw:128, lid: 12719
Lid 12424 is abnormal(X). (removed by timeout)
Abnormal flw:974, lid: 12773
Lid 12476 is abnormal(X). (removed by timeout)
Abnormal flw:759, lid: 12828
Lid 12533 is abnormal(X). (removed by timeout)
Abnormal flw:999, lid: 12875
Abnormal flw:680, lid: 12920
Abnormal flw:130, lid: 12978
Lid 12719 is abnormal(X). (removed by timeout)
Abnormal flw:516, lid: 13035
Lid 12773 is abnormal(X). (removed by timeout)
Abnormal flw:485, lid: 13095
Lid 12828 is abnormal(X). (removed by timeout)
Abnormal flw:985, lid: 13161
Lid 12875 is abnormal(X). (removed by timeout)
Abnormal flw:105, lid: 13216
Lid 12920 is abnormal(X). (removed by timeout)
Abnormal flw:786, lid: 13267
Lid 12978 is abnormal(X). (removed by timeout)
Abnormal flw:763, lid: 13325
Lid 13035 is abnormal(X). (removed by timeout)
Abnormal flw:566, lid: 13375
Lid 13095 is abnormal(X). (removed by timeout)
Abnormal flw:48, lid: 13427
Lid 13161 is abnormal(X). (removed by timeout)
[AbnormalityDetector] RETURN : 13427 is abnormal(X).
Abnormal flw:289, lid: 13480
Lid 13216 is abnormal(X). (removed by timeout)
[AbnormalityDetector] RETURN : 13480 is abnormal(X).
Abnormal flw:158, lid: 13536
Lid 13267 is abnormal(X). (removed by timeout)
Abnormal flw:817, lid: 13592
Lid 13325 is abnormal(X). (removed by timeout)
Abnormal flw:13, lid: 13649
Lid 13375 is abnormal(X). (removed by timeout)
[AbnormalityDetector] RETURN : 13649 is abnormal(X).
Abnormal flw:809, lid: 13716
Abnormal flw:381, lid: 13777
Abnormal flw:394, lid: 13835
Lid 13536 is abnormal(X). (removed by timeout)
Abnormal flw:115, lid: 13890
Lid 13592 is abnormal(X). (removed by timeout)
Abnormal flw:235, lid: 13933
Abnormal flw:405, lid: 13972
Lid 13716 is abnormal(X). (removed by timeout)
Abnormal flw:436, lid: 14023
Lid 13777 is abnormal(X). (removed by timeout)
[AbnormalityDetector] RETURN : 14023 is abnormal(X).
Abnormal flw:149, lid: 14089
Lid 13835 is abnormal(X). (removed by timeout)
Abnormal flw:250, lid: 14156
Lid 13890 is abnormal(X). (removed by timeout)
Abnormal flw:294, lid: 14225
Lid 13933 is abnormal(X). (removed by timeout)
Abnormal flw:397, lid: 14281
Lid 13972 is abnormal(X). (removed by timeout)
Abnormal flw:643, lid: 14325
Abnormal flw:124, lid: 14378
Lid 14089 is abnormal(X). (removed by timeout)
[AbnormalityDetector] RETURN : 14378 is abnormal(X).
Abnormal flw:643, lid: 14427
Lid 14156 is abnormal(X). (removed by timeout)
Abnormal flw:864, lid: 14484
Lid 14225 is abnormal(X). (removed by timeout)
Abnormal flw:178, lid: 14541
Lid 14281 is abnormal(X). (removed by timeout)
Abnormal flw:928, lid: 14593
Lid 14325 is abnormal(X). (removed by timeout)
Abnormal flw:79, lid: 14649
Abnormal flw:897, lid: 14707
Lid 14427 is abnormal(X). (removed by timeout)
Abnormal flw:510, lid: 14765
Lid 14484 is abnormal(X). (removed by timeout)
Abnormal flw:462, lid: 14826
Lid 14541 is abnormal(X). (removed by timeout)
Abnormal flw:594, lid: 14885
Lid 14593 is abnormal(X). (removed by timeout)
Abnormal flw:108, lid: 14942
Lid 14649 is abnormal(X). (removed by timeout)
Abnormal flw:811, lid: 14997
Lid 14707 is abnormal(X). (removed by timeout)
[AbnormalityDetector] RETURN : 14997 is abnormal(X).
Abnormal flw:541, lid: 15047
Lid 14765 is abnormal(X). (removed by timeout)
Abnormal flw:932, lid: 15098
Lid 14826 is abnormal(X). (removed by timeout)
[AbnormalityDetector] RETURN : 15098 is abnormal(X).
Abnormal flw:618, lid: 15141
Lid 14885 is abnormal(X). (removed by timeout)
Abnormal flw:761, lid: 15201
Lid 14942 is abnormal(X). (removed by timeout)
[AbnormalityDetector] RETURN : 15201 is abnormal(X).
Abnormal flw:981, lid: 15263
Abnormal flw:288, lid: 15330
Lid 15047 is abnormal(X). (removed by timeout)
Abnormal flw:537, lid: 15399
[AbnormalityDetector] RETURN : 15399 is abnormal(X).
Abnormal flw:806, lid: 15448
Lid 15141 is abnormal(X). (removed by timeout)
Abnormal flw:770, lid: 15496
Abnormal flw:545, lid: 15545
Lid 15263 is abnormal(X). (removed by timeout)
Abnormal flw:678, lid: 15593
Lid 15330 is abnormal(X). (removed by timeout)
Abnormal flw:565, lid: 15651
Abnormal flw:737, lid: 15711
Lid 15448 is abnormal(X). (removed by timeout)
Abnormal flw:747, lid: 15771
Lid 15496 is abnormal(X). (removed by timeout)
Abnormal flw:882, lid: 15831
Lid 15545 is abnormal(X). (removed by timeout)
Abnormal flw:340, lid: 15886
Lid 15593 is abnormal(X). (removed by timeout)
Abnormal flw:514, lid: 15946

[Memory Test Result] 2017-50-17 10:50:54
	Total Average : 34,169,633 ( 32.59 MB)
Average of transport: 0.2438397391685999
Total of transport: 3889
Last lid: 15949
Number of instance: 0
Average of abnormal required time: 10008
Average of normal required time: 3159
number of wrong answer: 0
Pattern Map(first): [{"flw":565,"app":-1,"lid":"15651","e_date":"2017\/04\/17 22:50:44:941","s_date":"2017\/04\/17 22:50:43:940"}, {"flw":737,"app":-1,"lid":"15711","e_date":"2017\/04\/17 22:50:47:084","s_date":"2017\/04\/17 22:50:46:084"}, {"flw":92,"app":434,"lid":"15745","e_date":"2017\/04\/17 22:50:48:354","s_date":"2017\/04\/17 22:50:47:354"}, {"flw":92,"app":434,"lid":"15749","e_date":"2017\/04\/17 22:50:48:372","s_date":"2017\/04\/17 22:50:47:372"}, {"flw":920,"app":364,"lid":"15754","e_date":"2017\/04\/17 22:50:48:610","s_date":"2017\/04\/17 22:50:47:610"}, {"flw":512,"app":255,"lid":"15755","e_date":"2017\/04\/17 22:50:48:652","s_date":"2017\/04\/17 22:50:47:652"}, {"flw":425,"app":30,"lid":"15756","e_date":"2017\/04\/17 22:50:48:656","s_date":"2017\/04\/17 22:50:47:656"}, {"flw":138,"app":102,"lid":"15764","e_date":"2017\/04\/17 22:50:48:964","s_date":"2017\/04\/17 22:50:47:964"}, {"flw":339,"app":428,"lid":"15769","e_date":"2017\/04\/17 22:50:49:163","s_date":"2017\/04\/17 22:50:48:163"}, {"flw":747,"app":-1,"lid":"15771","e_date":"2017\/04\/17 22:50:49:186","s_date":"2017\/04\/17 22:50:48:186"}, {"flw":176,"app":101,"lid":"15774","e_date":"2017\/04\/17 22:50:49:329","s_date":"2017\/04\/17 22:50:48:329"}, {"flw":727,"app":59,"lid":"15782","e_date":"2017\/04\/17 22:50:49:552","s_date":"2017\/04\/17 22:50:48:552"}, {"flw":109,"app":127,"lid":"15790","e_date":"2017\/04\/17 22:50:49:961","s_date":"2017\/04\/17 22:50:48:961"}, {"flw":623,"app":55,"lid":"15792","e_date":"2017\/04\/17 22:50:49:981","s_date":"2017\/04\/17 22:50:48:981"}, {"flw":763,"app":407,"lid":"15794","e_date":"2017\/04\/17 22:50:50:024","s_date":"2017\/04\/17 22:50:49:024"}, {"flw":566,"app":388,"lid":"15797","e_date":"2017\/04\/17 22:50:50:085","s_date":"2017\/04\/17 22:50:49:085"}, {"flw":910,"app":465,"lid":"15801","e_date":"2017\/04\/17 22:50:50:289","s_date":"2017\/04\/17 22:50:49:289"}, {"flw":828,"app":434,"lid":"15807","e_date":"2017\/04\/17 22:50:50:457","s_date":"2017\/04\/17 22:50:49:456"}, {"flw":828,"app":434,"lid":"15811","e_date":"2017\/04\/17 22:50:50:474","s_date":"2017\/04\/17 22:50:49:474"}, {"flw":71,"app":472,"lid":"15813","e_date":"2017\/04\/17 22:50:50:510","s_date":"2017\/04\/17 22:50:49:509"}, {"flw":2,"app":364,"lid":"15816","e_date":"2017\/04\/17 22:50:50:716","s_date":"2017\/04\/17 22:50:49:716"}, {"flw":147,"app":255,"lid":"15817","e_date":"2017\/04\/17 22:50:50:756","s_date":"2017\/04\/17 22:50:49:756"}, {"flw":466,"app":30,"lid":"15818","e_date":"2017\/04\/17 22:50:50:758","s_date":"2017\/04\/17 22:50:49:758"}, {"flw":73,"app":51,"lid":"15823","e_date":"2017\/04\/17 22:50:50:984","s_date":"2017\/04\/17 22:50:49:984"}, {"flw":620,"app":102,"lid":"15825","e_date":"2017\/04\/17 22:50:51:065","s_date":"2017\/04\/17 22:50:50:065"}, {"flw":568,"app":339,"lid":"15826","e_date":"2017\/04\/17 22:50:51:154","s_date":"2017\/04\/17 22:50:50:153"}, {"flw":826,"app":428,"lid":"15829","e_date":"2017\/04\/17 22:50:51:272","s_date":"2017\/04\/17 22:50:50:272"}, {"flw":882,"app":-1,"lid":"15831","e_date":"2017\/04\/17 22:50:51:289","s_date":"2017\/04\/17 22:50:50:289"}, {"flw":107,"app":392,"lid":"15833","e_date":"2017\/04\/17 22:50:51:389","s_date":"2017\/04\/17 22:50:50:389"}, {"flw":582,"app":101,"lid":"15835","e_date":"2017\/04\/17 22:50:51:433","s_date":"2017\/04\/17 22:50:50:433"}, {"flw":599,"app":87,"lid":"15836","e_date":"2017\/04\/17 22:50:51:523","s_date":"2017\/04\/17 22:50:50:523"}, {"flw":578,"app":59,"lid":"15839","e_date":"2017\/04\/17 22:50:51:654","s_date":"2017\/04\/17 22:50:50:654"}, {"flw":833,"app":206,"lid":"15841","e_date":"2017\/04\/17 22:50:51:748","s_date":"2017\/04\/17 22:50:50:748"}, {"flw":608,"app":367,"lid":"15845","e_date":"2017\/04\/17 22:50:51:955","s_date":"2017\/04\/17 22:50:50:955"}, {"flw":32,"app":406,"lid":"15846","e_date":"2017\/04\/17 22:50:51:991","s_date":"2017\/04\/17 22:50:50:991"}, {"flw":228,"app":127,"lid":"15848","e_date":"2017\/04\/17 22:50:52:065","s_date":"2017\/04\/17 22:50:51:065"}, {"flw":523,"app":55,"lid":"15850","e_date":"2017\/04\/17 22:50:52:083","s_date":"2017\/04\/17 22:50:51:082"}, {"flw":364,"app":407,"lid":"15852","e_date":"2017\/04\/17 22:50:52:127","s_date":"2017\/04\/17 22:50:51:127"}, {"flw":236,"app":202,"lid":"15853","e_date":"2017\/04\/17 22:50:52:158","s_date":"2017\/04\/17 22:50:51:158"}, {"flw":219,"app":388,"lid":"15856","e_date":"2017\/04\/17 22:50:52:189","s_date":"2017\/04\/17 22:50:51:189"}, {"flw":670,"app":465,"lid":"15859","e_date":"2017\/04\/17 22:50:52:392","s_date":"2017\/04\/17 22:50:51:392"}, {"flw":433,"app":315,"lid":"15861","e_date":"2017\/04\/17 22:50:52:485","s_date":"2017\/04\/17 22:50:51:485"}, {"flw":839,"app":459,"lid":"15862","e_date":"2017\/04\/17 22:50:52:501","s_date":"2017\/04\/17 22:50:51:499"}, {"flw":921,"app":37,"lid":"15864","e_date":"2017\/04\/17 22:50:52:540","s_date":"2017\/04\/17 22:50:51:540"}, {"flw":593,"app":62,"lid":"15865","e_date":"2017\/04\/17 22:50:52:542","s_date":"2017\/04\/17 22:50:51:542"}, {"flw":660,"app":289,"lid":"15866","e_date":"2017\/04\/17 22:50:52:548","s_date":"2017\/04\/17 22:50:51:548"}, {"flw":679,"app":434,"lid":"15867","e_date":"2017\/04\/17 22:50:52:560","s_date":"2017\/04\/17 22:50:51:560"}, {"flw":679,"app":434,"lid":"15870","e_date":"2017\/04\/17 22:50:52:576","s_date":"2017\/04\/17 22:50:51:576"}, {"flw":788,"app":472,"lid":"15871","e_date":"2017\/04\/17 22:50:52:612","s_date":"2017\/04\/17 22:50:51:612"}, {"flw":921,"app":100,"lid":"15872","e_date":"2017\/04\/17 22:50:52:632","s_date":"2017\/04\/17 22:50:51:631"}, {"flw":200,"app":251,"lid":"15873","e_date":"2017\/04\/17 22:50:52:654","s_date":"2017\/04\/17 22:50:51:654"}, {"flw":26,"app":466,"lid":"15875","e_date":"2017\/04\/17 22:50:52:748","s_date":"2017\/04\/17 22:50:51:747"}, {"flw":940,"app":364,"lid":"15876","e_date":"2017\/04\/17 22:50:52:820","s_date":"2017\/04\/17 22:50:51:820"}, {"flw":673,"app":255,"lid":"15877","e_date":"2017\/04\/17 22:50:52:859","s_date":"2017\/04\/17 22:50:51:859"}, {"flw":725,"app":30,"lid":"15878","e_date":"2017\/04\/17 22:50:52:861","s_date":"2017\/04\/17 22:50:51:861"}, {"flw":574,"app":51,"lid":"15882","e_date":"2017\/04\/17 22:50:53:086","s_date":"2017\/04\/17 22:50:52:086"}, {"flw":411,"app":102,"lid":"15883","e_date":"2017\/04\/17 22:50:53:169","s_date":"2017\/04\/17 22:50:52:168"}, {"flw":726,"app":339,"lid":"15884","e_date":"2017\/04\/17 22:50:53:257","s_date":"2017\/04\/17 22:50:52:257"}, {"flw":53,"app":428,"lid":"15885","e_date":"2017\/04\/17 22:50:53:375","s_date":"2017\/04\/17 22:50:52:375"}, {"flw":340,"app":-1,"lid":"15886","e_date":"2017\/04\/17 22:50:53:391","s_date":"2017\/04\/17 22:50:52:391"}, {"flw":889,"app":392,"lid":"15888","e_date":"2017\/04\/17 22:50:53:492","s_date":"2017\/04\/17 22:50:52:492"}, {"flw":862,"app":101,"lid":"15890","e_date":"2017\/04\/17 22:50:53:537","s_date":"2017\/04\/17 22:50:52:537"}, {"flw":303,"app":291,"lid":"15891","e_date":"2017\/04\/17 22:50:53:618","s_date":"2017\/04\/17 22:50:52:618"}, {"flw":762,"app":87,"lid":"15892","e_date":"2017\/04\/17 22:50:53:628","s_date":"2017\/04\/17 22:50:52:628"}, {"flw":919,"app":217,"lid":"15893","e_date":"2017\/04\/17 22:50:53:721","s_date":"2017\/04\/17 22:50:52:721"}, {"flw":865,"app":59,"lid":"15895","e_date":"2017\/04\/17 22:50:53:756","s_date":"2017\/04\/17 22:50:52:756"}, {"flw":565,"app":271,"lid":"15896","e_date":"2017\/04\/17 22:50:53:788","s_date":"2017\/04\/17 22:50:52:788"}, {"flw":54,"app":206,"lid":"15898","e_date":"2017\/04\/17 22:50:53:851","s_date":"2017\/04\/17 22:50:52:851"}, {"flw":935,"app":358,"lid":"15901","e_date":"2017\/04\/17 22:50:53:984","s_date":"2017\/04\/17 22:50:52:984"}, {"flw":741,"app":125,"lid":"15902","e_date":"2017\/04\/17 22:50:54:042","s_date":"2017\/04\/17 22:50:53:041"}, {"flw":304,"app":367,"lid":"15903","e_date":"2017\/04\/17 22:50:54:059","s_date":"2017\/04\/17 22:50:53:059"}, {"flw":319,"app":406,"lid":"15904","e_date":"2017\/04\/17 22:50:54:094","s_date":"2017\/04\/17 22:50:53:094"}, {"flw":167,"app":127,"lid":"15906","e_date":"2017\/04\/17 22:50:54:168","s_date":"2017\/04\/17 22:50:53:168"}, {"flw":41,"app":55,"lid":"15908","e_date":"2017\/04\/17 22:50:54:186","s_date":"2017\/04\/17 22:50:53:185"}, {"flw":855,"app":407,"lid":"15909","e_date":"2017\/04\/17 22:50:54:231","s_date":"2017\/04\/17 22:50:53:231"}, {"flw":64,"app":234,"lid":"15910","e_date":"2017\/04\/17 22:50:54:240","s_date":"2017\/04\/17 22:50:53:240"}, {"flw":633,"app":202,"lid":"15911","e_date":"2017\/04\/17 22:50:54:261","s_date":"2017\/04\/17 22:50:53:261"}, {"flw":340,"app":388,"lid":"15913","e_date":"2017\/04\/17 22:50:54:291","s_date":"2017\/04\/17 22:50:53:291"}, {"flw":804,"app":3,"lid":"15914","e_date":"2017\/04\/17 22:50:54:319","s_date":"2017\/04\/17 22:50:53:319"}, {"flw":281,"app":361,"lid":"15915","e_date":"2017\/04\/17 22:50:54:322","s_date":"2017\/04\/17 22:50:53:322"}, {"flw":285,"app":196,"lid":"15916","e_date":"2017\/04\/17 22:50:54:391","s_date":"2017\/04\/17 22:50:53:391"}, {"flw":855,"app":39,"lid":"15917","e_date":"2017\/04\/17 22:50:54:425","s_date":"2017\/04\/17 22:50:53:425"}, {"flw":218,"app":465,"lid":"15919","e_date":"2017\/04\/17 22:50:54:500","s_date":"2017\/04\/17 22:50:53:496"}, {"flw":869,"app":315,"lid":"15921","e_date":"2017\/04\/17 22:50:54:588","s_date":"2017\/04\/17 22:50:53:588"}, {"flw":330,"app":459,"lid":"15922","e_date":"2017\/04\/17 22:50:54:605","s_date":"2017\/04\/17 22:50:53:604"}]
Confirm Map: {}
last lid: 15949
